09 tidyr
…
	AfghanistanAFAFG1982NANANANANANA...NANANANANANANANANANA

	AfghanistanAFAFG1983NANANANANANA...NANANANANANANANANANA

	AfghanistanAFAFG1984NANANANANANA...NANANANANANANANANANA

	AfghanistanAFAFG1985NANANANANANA...NANANANANANANANANANA

In [118]:

who1 <- who %>% gather(
    new_sp_m014:newrel_f65, key = "key", value = "cases", na.rm = T
) %>% print()

# A tibble: 76,046 x 6
   country     iso2  iso3   year key         cases
   <chr>       <chr> <chr> <int> <chr>       <int>
 1 Afghanistan AF    AFG    1997 new_sp_m014     0
 2 Afghanistan AF    AFG    1998 new_sp_m014    30
 3 Afghanistan AF    AFG    1999 new_sp_m014     8
 4 Afghanistan AF    AFG    2000 new_sp_m014    52
 5 Afghanistan AF    AFG    2001 new_sp_m014   129
 6 Afghanistan AF    AFG    2002 new_sp_m014    90
 7 Afghanistan AF    AFG    2003 new_sp_m014   127
 8 Afghanistan AF    AFG    2004 new_sp_m014   139
 9 Afghanistan AF    AFG    2005 new_sp_m014   151
10 Afghanistan AF    AFG    2006 new_sp_m014   193
# ... with 76,036 more rows

In [122]:

who2 <- who1 %>% 
mutate(key = stringr::str_replace(key, "newrel", "new_rel")) %>% print()

# A tibble: 76,046 x 6
   country     iso2  iso3   year key         cases
   <chr>       <chr> <chr> <int> <chr>       <int>
 1 Afghanistan AF    AFG    1997 new_sp_m014     0
 2 Afghanistan AF    AFG    1998 new_sp_m014    30
 3 Afghanistan AF    AFG    1999 new_sp_m014     8
 4 Afghanistan AF    AFG    2000 new_sp_m014    52
 5 Afghanistan AF    AFG    2001 new_sp_m014   129
 6 Afghanistan AF    AFG    2002 new_sp_m014    90
 7 Afghanistan AF    AFG    2003 new_sp_m014   127
 8 Afghanistan AF    AFG    2004 new_sp_m014   139
 9 Afghanistan AF    AFG    2005 new_sp_m014   151
10 Afghanistan AF    AFG    2006 new_sp_m014   193
# ... with 76,036 more rows

In [123]:

who3 <- who2 %>% separate(key, c("new", "type", "sexage"), sep = "_") %>% print()

# A tibble: 76,046 x 8
   country     iso2  iso3   year new   type  sexage cases
   <chr>       <chr> <chr> <int> <chr> <chr> <chr>  <int>
 1 Afghanistan AF    AFG    1997 new   sp    m014       0
 2 Afghanistan AF    AFG    1998 new   sp    m014      30
 3 Afghanistan AF    AFG    1999 new   sp    m014       8
 4 Afghanistan AF    AFG    2000 new   sp    m014      52
 5 Afghanistan AF    AFG    2001 new   sp    m014     129
 6 Afghanistan AF    AFG    2002 new   sp    m014      90
 7 Afghanistan AF    AFG    2003 new   sp    m014     127
 8 Afghanistan AF    AFG    2004 new   sp    m014     139
 9 Afghanistan AF    AFG    2005 new   sp    m014     151
10 Afghanistan AF    AFG    2006 new   sp    m014     193
# ... with 76,036 more rows
…
who3 %>% count(new)

A tibble: 1  2

	newn

	<chr><int>

	new76046

In [132]:

who4 <- who3 %>% select(-c("new", "iso2", "iso3")) %>% print()

# A tibble: 76,046 x 5
   country      year type  sexage cases
   <chr>       <int> <chr> <chr>  <int>
 1 Afghanistan  1997 sp    m014       0
 2 Afghanistan  1998 sp    m014      30
 3 Afghanistan  1999 sp    m014       8
 4 Afghanistan  2000 sp    m014      52
 5 Afghanistan  2001 sp    m014     129
 6 Afghanistan  2002 sp    m014      90
 7 Afghanistan  2003 sp    m014     127
 8 Afghanistan  2004 sp    m014     139
 9 Afghanistan  2005 sp    m014     151
10 Afghanistan  2006 sp    m014     193
# ... with 76,036 more rows

In [133]:

who5 <- who4 %>% separate(sexage, c("sex", "age"), sep = 1) %>% print()

# A tibble: 76,046 x 6
   country      year type  sex   age   cases
   <chr>       <int> <chr> <chr> <chr> <int>
 1 Afghanistan  1997 sp    m     014       0
 2 Afghanistan  1998 sp    m     014      30
 3 Afghanistan  1999 sp    m     014       8
 4 Afghanistan  2000 sp    m     014      52
 5 Afghanistan  2001 sp    m     014     129
 6 Afghanistan  2002 sp    m     014      90
 7 Afghanistan  2003 sp    m     014     127
 8 Afghanistan  2004 sp    m     014     139
 9 Afghanistan  2005 sp    m     014     151
10 Afghanistan  2006 sp    m     014     193
# ... with 76,036 more rows
…
