12 범주형 (forcats)
…
fct_reorder2() : 큰 x값과 연관된 y값으로 재정렬¶

In [37]:

by_age <- gss_cat %>%
    filter(!is.na(age)) %>%
    group_by(age, marital) %>%
    count() %>% 
    mutate(prop = n / sum(by_age$n))
by_age %>% print

# A tibble: 351 x 4
# Groups:   age, marital [351]
     age marital           n      prop
   <int> <fct>         <int>     <dbl>
 1    18 Never married    89 0.00416  
 2    18 Married           2 0.0000934
 3    19 Never married   234 0.0109   
 4    19 Divorced          3 0.000140 
 5    19 Widowed           1 0.0000467
 6    19 Married          11 0.000514 
 7    20 Never married   227 0.0106   
 8    20 Separated         1 0.0000467
 9    20 Divorced          2 0.0000934
10    20 Married          21 0.000981 
# ... with 341 more rows
…
