13 시간 (lubridate)
…
In [9]:

ymd(20220404, tz = "UTC")

[1] "2022-04-04 UTC"

개별 구성요소에서 생성¶

In [10]:

flights %>% 
    select(year, month, day, hour, minute) %>% print

# A tibble: 336,776 x 5
    year month   day  hour minute
   <int> <int> <int> <dbl>  <dbl>
 1  2013     1     1     5     15
 2  2013     1     1     5     29
 3  2013     1     1     5     40
 4  2013     1     1     5     45
 5  2013     1     1     6      0
 6  2013     1     1     5     58
 7  2013     1     1     6      0
 8  2013     1     1     6      0
 9  2013     1     1     6      0
10  2013     1     1     6      0
# ... with 336,766 more rows

make_date() : 데이트형 생성¶
make_datetime() : 데이트-타임형 생성¶

In [13]:

flights %>% select(year, month, day, hour, minute) %>% 
    mutate(departure = make_datetime(year, month, day, hour, minute)) %>% print

# A tibble: 336,776 x 6
    year month   day  hour minute departure          
   <int> <int> <int> <dbl>  <dbl> <dttm>             
 1  2013     1     1     5     15 2013-01-01 05:15:00
 2  2013     1     1     5     29 2013-01-01 05:29:00
 3  2013     1     1     5     40 2013-01-01 05:40:00
 4  2013     1     1     5     45 2013-01-01 05:45:00
 5  2013     1     1     6      0 2013-01-01 06:00:00
 6  2013     1     1     5     58 2013-01-01 05:58:00
 7  2013     1     1     6      0 2013-01-01 06:00:00
 8  2013     1     1     6      0 2013-01-01 06:00:00
 9  2013     1     1     6      0 2013-01-01 06:00:00
10  2013     1     1     6      0 2013-01-01 06:00:00
# ... with 336,766 more rows
…
