20 purrr과 broom을 이용한 많은 모델
…
중첩된 데이터¶
nest() : 데이터프레임을 중첩된 데이터프레임으로 변경¶

In [86]:

by_country <- gapminder %>%
    group_by(country, continent) %>%
    nest()
by_country %>% print

# A tibble: 142 x 3
# Groups:   country, continent [142]
   country     continent data             
   <fct>       <fct>     <list>           
 1 Afghanistan Asia      <tibble [12 x 4]>
 2 Albania     Europe    <tibble [12 x 4]>
 3 Algeria     Africa    <tibble [12 x 4]>
 4 Angola      Africa    <tibble [12 x 4]>
 5 Argentina   Americas  <tibble [12 x 4]>
 6 Australia   Oceania   <tibble [12 x 4]>
 7 Austria     Europe    <tibble [12 x 4]>
 8 Bahrain     Asia      <tibble [12 x 4]>
 9 Bangladesh  Asia      <tibble [12 x 4]>
10 Belgium     Europe    <tibble [12 x 4]>
# ... with 132 more rows
…
In [88]:

country_model <- function(df) {
    lm(lifeExp ~ year, df)
}

In [89]:

by_country <- by_country %>%
    mutate(model = map(data, country_model))
by_country %>% print
by_country$model[1]

# A tibble: 142 x 4
# Groups:   country, continent [142]
   country     continent data              model 
   <fct>       <fct>     <list>            <list>
 1 Afghanistan Asia      <tibble [12 x 4]> <lm>  
 2 Albania     Europe    <tibble [12 x 4]> <lm>  
 3 Algeria     Africa    <tibble [12 x 4]> <lm>  
 4 Angola      Africa    <tibble [12 x 4]> <lm>  
 5 Argentina   Americas  <tibble [12 x 4]> <lm>  
 6 Australia   Oceania   <tibble [12 x 4]> <lm>  
 7 Austria     Europe    <tibble [12 x 4]> <lm>  
 8 Bahrain     Asia      <tibble [12 x 4]> <lm>  
 9 Bangladesh  Asia      <tibble [12 x 4]> <lm>  
10 Belgium     Europe    <tibble [12 x 4]> <lm>  
# ... with 132 more rows
[[1]]

Call:
lm(formula = lifeExp ~ year, data = df)

Coefficients:
(Intercept)         year  
  -507.5343       0.2753  

In [90]:

by_country %>% 
    filter(continent == "Europe") %>% print

# A tibble: 30 x 4
# Groups:   country, continent [30]
   country                continent data              model 
   <fct>                  <fct>     <list>            <list>
 1 Albania                Europe    <tibble [12 x 4]> <lm>  
 2 Austria                Europe    <tibble [12 x 4]> <lm>  
 3 Belgium                Europe    <tibble [12 x 4]> <lm>  
 4 Bosnia and Herzegovina Europe    <tibble [12 x 4]> <lm>  
 5 Bulgaria               Europe    <tibble [12 x 4]> <lm>  
 6 Croatia                Europe    <tibble [12 x 4]> <lm>  
 7 Czech Republic         Europe    <tibble [12 x 4]> <lm>  
 8 Denmark                Europe    <tibble [12 x 4]> <lm>  
 9 Finland                Europe    <tibble [12 x 4]> <lm>  
10 France                 Europe    <tibble [12 x 4]> <lm>  
# ... with 20 more rows

In [91]:

by_country %>%
    arrange(continent, country) %>% print

# A tibble: 142 x 4
# Groups:   country, continent [142]
   country                  continent data              model 
   <fct>                    <fct>     <list>            <list>
 1 Algeria                  Africa    <tibble [12 x 4]> <lm>  
 2 Angola                   Africa    <tibble [12 x 4]> <lm>  
 3 Benin                    Africa    <tibble [12 x 4]> <lm>  
 4 Botswana                 Africa    <tibble [12 x 4]> <lm>  
 5 Burkina Faso             Africa    <tibble [12 x 4]> <lm>  
 6 Burundi                  Africa    <tibble [12 x 4]> <lm>  
 7 Cameroon                 Africa    <tibble [12 x 4]> <lm>  
 8 Central African Republic Africa    <tibble [12 x 4]> <lm>  
 9 Chad                     Africa    <tibble [12 x 4]> <lm>  
10 Comoros                  Africa    <tibble [12 x 4]> <lm>  
# ... with 132 more rows

중첩 해제하기 (Unnesting)¶

In [92]:

by_country <- by_country %>%
    mutate(
        resids = map2(data, model, add_residuals)
    )
by_country %>% print

# A tibble: 142 x 5
# Groups:   country, continent [142]
   country     continent data              model  resids           
   <fct>       <fct>     <list>            <list> <list>           
 1 Afghanistan Asia      <tibble [12 x 4]> <lm>   <tibble [12 x 5]>
 2 Albania     Europe    <tibble [12 x 4]> <lm>   <tibble [12 x 5]>
 3 Algeria     Africa    <tibble [12 x 4]> <lm>   <tibble [12 x 5]>
 4 Angola      Africa    <tibble [12 x 4]> <lm>   <tibble [12 x 5]>
 5 Argentina   Americas  <tibble [12 x 4]> <lm>   <tibble [12 x 5]>
 6 Australia   Oceania   <tibble [12 x 4]> <lm>   <tibble [12 x 5]>
 7 Austria     Europe    <tibble [12 x 4]> <lm>   <tibble [12 x 5]>
 8 Bahrain     Asia      <tibble [12 x 4]> <lm>   <tibble [12 x 5]>
 9 Bangladesh  Asia      <tibble [12 x 4]> <lm>   <tibble [12 x 5]>
10 Belgium     Europe    <tibble [12 x 4]> <lm>   <tibble [12 x 5]>
# ... with 132 more rows

unnest() : 중첩된 데이터프레임을 일반 데이터프레임으로 변경¶

.drop = TRUE : 여전히 모든 리스트-열을 포함하고 있을 때, 숨기기 위해서 사용

In [93]:

resids <- unnest(by_country, resids)
resids %>% print

# A tibble: 1,704 x 9
# Groups:   country, continent [142]
   country     continent data     model   year lifeExp     pop gdpPercap   resid
   <fct>       <fct>     <list>   <list> <int>   <dbl>   <int>     <dbl>   <dbl>
 1 Afghanistan Asia      <tibble> <lm>    1952    28.8  8.43e6      779. -1.11  
 2 Afghanistan Asia      <tibble> <lm>    1957    30.3  9.24e6      821. -0.952 
 3 Afghanistan Asia      <tibble> <lm>    1962    32.0  1.03e7      853. -0.664 
 4 Afghanistan Asia      <tibble> <lm>    1967    34.0  1.15e7      836. -0.0172
 5 Afghanistan Asia      <tibble> <lm>    1972    36.1  1.31e7      740.  0.674 
 6 Afghanistan Asia      <tibble> <lm>    1977    38.4  1.49e7      786.  1.65  
 7 Afghanistan Asia      <tibble> <lm>    1982    39.9  1.29e7      978.  1.69  
 8 Afghanistan Asia      <tibble> <lm>    1987    40.8  1.39e7      852.  1.28  
 9 Afghanistan Asia      <tibble> <lm>    1992    41.7  1.63e7      649.  0.754 
10 Afghanistan Asia      <tibble> <lm>    1997    41.8  2.22e7      635. -0.534 
# ... with 1,694 more rows
…
A tibble: 1 × 12

	r.squaredadj.r.squaredsigmastatisticp.valuedflogLikAICBICdeviancedf.residualnobs

	<dbl><dbl><dbl><dbl><dbl><dbl><dbl><dbl><dbl><dbl><int><int>

	0.95358460.94894310.8043472205.44595.407324e-081-13.3206432.6412834.0966.4697431012

In [104]:

glance <- by_country %>% 
  mutate(glance = map(model, broom::glance)) %>% 
  unnest(glance, .drop = TRUE) %>% print

# A tibble: 142 x 17
# Groups:   country, continent [142]
   country     continent data     model  resids   r.squared adj.r.squared sigma
   <fct>       <fct>     <list>   <list> <list>       <dbl>         <dbl> <dbl>
 1 Afghanistan Asia      <tibble> <lm>   <tibble>     0.948         0.942 1.22 
 2 Albania     Europe    <tibble> <lm>   <tibble>     0.911         0.902 1.98 
 3 Algeria     Africa    <tibble> <lm>   <tibble>     0.985         0.984 1.32 
 4 Angola      Africa    <tibble> <lm>   <tibble>     0.888         0.877 1.41 
 5 Argentina   Americas  <tibble> <lm>   <tibble>     0.996         0.995 0.292
 6 Australia   Oceania   <tibble> <lm>   <tibble>     0.980         0.978 0.621
 7 Austria     Europe    <tibble> <lm>   <tibble>     0.992         0.991 0.407
 8 Bahrain     Asia      <tibble> <lm>   <tibble>     0.967         0.963 1.64 
 9 Bangladesh  Asia      <tibble> <lm>   <tibble>     0.989         0.988 0.977
10 Belgium     Europe    <tibble> <lm>   <tibble>     0.995         0.994 0.293
# ... with 132 more rows, and 9 more variables: statistic <dbl>, p.value <dbl>,
#   df <dbl>, logLik <dbl>, AIC <dbl>, BIC <dbl>, deviance <dbl>,
#   df.residual <int>, nobs <int>

In [107]:

glance %>% 
    arrange(r.squared) %>% print

# A tibble: 142 x 17
# Groups:   country, continent [142]
   country       continent data     model resids   r.squared adj.r.squared sigma
   <fct>         <fct>     <list>   <lis> <list>       <dbl>         <dbl> <dbl>
 1 Rwanda        Africa    <tibble> <lm>  <tibble>    0.0172      -0.0811   6.56
 2 Botswana      Africa    <tibble> <lm>  <tibble>    0.0340      -0.0626   6.11
 3 Zimbabwe      Africa    <tibble> <lm>  <tibble>    0.0562      -0.0381   7.21
 4 Zambia        Africa    <tibble> <lm>  <tibble>    0.0598      -0.0342   4.53
 5 Swaziland     Africa    <tibble> <lm>  <tibble>    0.0682      -0.0250   6.64
 6 Lesotho       Africa    <tibble> <lm>  <tibble>    0.0849      -0.00666  5.93
 7 Cote d'Ivoire Africa    <tibble> <lm>  <tibble>    0.283        0.212    3.93
 8 South Africa  Africa    <tibble> <lm>  <tibble>    0.312        0.244    4.74
 9 Uganda        Africa    <tibble> <lm>  <tibble>    0.342        0.276    3.19
10 Congo, Dem. ~ Africa    <tibble> <lm>  <tibble>    0.348        0.283    2.43
# ... with 132 more rows, and 9 more variables: statistic <dbl>, p.value <dbl>,
#   df <dbl>, logLik <dbl>, AIC <dbl>, BIC <dbl>, deviance <dbl>,
#   df.residual <int>, nobs <int>
…
by_country <- by_country %>%
  mutate(model = map(data, country_model))

In [114]:

by_country <- by_country %>%
  mutate(
    resids = map2(data, model, add_residuals)
  )
by_country %>% print

# A tibble: 142 x 5
# Groups:   country, continent [142]
   country     continent data              model  resids           
   <fct>       <fct>     <list>            <list> <list>           
 1 Afghanistan Asia      <tibble [12 x 4]> <lm>   <tibble [12 x 5]>
 2 Albania     Europe    <tibble [12 x 4]> <lm>   <tibble [12 x 5]>
 3 Algeria     Africa    <tibble [12 x 4]> <lm>   <tibble [12 x 5]>
 4 Angola      Africa    <tibble [12 x 4]> <lm>   <tibble [12 x 5]>
 5 Argentina   Americas  <tibble [12 x 4]> <lm>   <tibble [12 x 5]>
 6 Australia   Oceania   <tibble [12 x 4]> <lm>   <tibble [12 x 5]>
 7 Austria     Europe    <tibble [12 x 4]> <lm>   <tibble [12 x 5]>
 8 Bahrain     Asia      <tibble [12 x 4]> <lm>   <tibble [12 x 5]>
 9 Bangladesh  Asia      <tibble [12 x 4]> <lm>   <tibble [12 x 5]>
10 Belgium     Europe    <tibble [12 x 4]> <lm>   <tibble [12 x 5]>
# ... with 132 more rows
…
In [120]:

# 3
a <- gapminder %>%
      group_by(country, continent) %>%
      nest() %>%
      mutate(model = map(data, ~lm(lifeExp ~ year, .))) %>%
      mutate(glance = map(model, broom::glance)) %>%
      unnest(glance) %>%
      unnest(data) %>% print

# A tibble: 1,704 x 19
# Groups:   country, continent [142]
   country     continent  year lifeExp      pop gdpPercap model  r.squared
   <fct>       <fct>     <int>   <dbl>    <int>     <dbl> <list>     <dbl>
 1 Afghanistan Asia       1952    28.8  8425333      779. <lm>       0.948
 2 Afghanistan Asia       1957    30.3  9240934      821. <lm>       0.948
 3 Afghanistan Asia       1962    32.0 10267083      853. <lm>       0.948
 4 Afghanistan Asia       1967    34.0 11537966      836. <lm>       0.948
 5 Afghanistan Asia       1972    36.1 13079460      740. <lm>       0.948
 6 Afghanistan Asia       1977    38.4 14880372      786. <lm>       0.948
 7 Afghanistan Asia       1982    39.9 12881816      978. <lm>       0.948
 8 Afghanistan Asia       1987    40.8 13867957      852. <lm>       0.948
 9 Afghanistan Asia       1992    41.7 16317921      649. <lm>       0.948
10 Afghanistan Asia       1997    41.8 22227415      635. <lm>       0.948
# ... with 1,694 more rows, and 11 more variables: adj.r.squared <dbl>,
#   sigma <dbl>, statistic <dbl>, p.value <dbl>, df <dbl>, logLik <dbl>,
#   AIC <dbl>, BIC <dbl>, deviance <dbl>, df.residual <int>, nobs <int>
…
	1, 2, 31, 2   

	3, 4, 53, 4, 5

리스트-열 생성하기¶

중첩을 사용하여 생성¶

In [131]:

gapminder %>%
    group_by(country, continent) %>%
    nest() %>% print

# A tibble: 142 x 3
# Groups:   country, continent [142]
   country     continent data             
   <fct>       <fct>     <list>           
 1 Afghanistan Asia      <tibble [12 x 4]>
 2 Albania     Europe    <tibble [12 x 4]>
 3 Algeria     Africa    <tibble [12 x 4]>
 4 Angola      Africa    <tibble [12 x 4]>
 5 Argentina   Americas  <tibble [12 x 4]>
 6 Australia   Oceania   <tibble [12 x 4]>
 7 Austria     Europe    <tibble [12 x 4]>
 8 Bahrain     Asia      <tibble [12 x 4]>
 9 Bangladesh  Asia      <tibble [12 x 4]>
10 Belgium     Europe    <tibble [12 x 4]>
# ... with 132 more rows

In [133]:

gapminder %>%
    nest(year:gdpPercap) %>% print

Warning message:
"All elements of `...` must be named.
Did you want `data = year:gdpPercap`?"

# A tibble: 142 x 3
   country     continent data             
   <fct>       <fct>     <list>           
 1 Afghanistan Asia      <tibble [12 x 4]>
 2 Albania     Europe    <tibble [12 x 4]>
 3 Algeria     Africa    <tibble [12 x 4]>
 4 Angola      Africa    <tibble [12 x 4]>
 5 Argentina   Americas  <tibble [12 x 4]>
 6 Australia   Oceania   <tibble [12 x 4]>
 7 Austria     Europe    <tibble [12 x 4]>
 8 Bahrain     Asia      <tibble [12 x 4]>
 9 Bangladesh  Asia      <tibble [12 x 4]>
10 Belgium     Europe    <tibble [12 x 4]>
# ... with 132 more rows
…
