01 단어 빈도 분석
…
	국

	은

	민

In [14]:

word_space <- moon %>% unnest_tokens(input = value,
                                    output = words,
                                    token = "words")
word_space %>% print

# A tibble: 2,025 x 1
   words     
   <chr>     
 1 정권교체  
 2 하겠습니다
 3 정치교체  
 4 하겠습니다
 5 시대교체  
 6 하겠습니다
 7 불비불명  
 8 이라는    
 9 고사가    
10 있습니다  
# ... with 2,015 more rows

01-03 단어 빈도 분석¶

count() : 단어 빈도 구하기¶

sort = TRUE : 빈도가 높은 순으로 단어 정렬

In [15]:

word_space <- word_space %>%
    count(words, sort = T)

word_space %>% print

# A tibble: 1,440 x 2
   words            n
   <chr>        <int>
 1 합니다          27
 2 수              16
 3 있습니다        13
 4 저는            13
 5 등              12
 6 있는            12
 7 함께            12
 8 만들겠습니다    11
 9 일자리          10
10 국민의           9
# ... with 1,430 more rows

한 글자로 된 단어 제거¶

In [16]:

word_space <- word_space %>%
    filter(str_count(words) > 1)

word_space %>% print

# A tibble: 1,384 x 2
   words            n
   <chr>        <int>
 1 합니다          27
 2 있습니다        13
 3 저는            13
 4 있는            12
 5 함께            12
 6 만들겠습니다    11
 7 일자리          10
 8 국민의           9
 9 우리             9
10 우리나라         9
# ... with 1,374 more rows
…
park <- raw_park %>%
    str_replace_all("[^가-힣]", " ") %>%
    str_squish() %>%
    as_tibble()

In [36]:

word_space2 <- park %>%
    unnest_tokens(input = value,
                 output = word,
                 token = "words")

word_space %>% print

# A tibble: 1,384 x 2
   words            n
   <chr>        <int>
 1 합니다          27
 2 있습니다        13
 3 저는            13
 4 있는            12
 5 함께            12
 6 만들겠습니다    11
 7 일자리          10
 8 국민의           9
 9 우리             9
10 우리나라         9
# ... with 1,374 more rows
…
