03 비교분석
…
In [5]:

raw_park <- readLines("speech_park.txt", encoding = "UTF-8")
park <- raw_park %>%
  as_tibble() %>%
  mutate(president = "park")

In [9]:

print(moon) ; print(park)

# A tibble: 117 x 2
   value                                                               president
   <chr>                                                               <chr>    
 1 "정권교체 하겠습니다!"                                              moon     
 2 "  정치교체 하겠습니다!"                                            moon     
 3 "  시대교체 하겠습니다!"                                            moon     
 4 "  "                                                                moon     
 5 "  ‘불비불명(不飛不鳴)’이라는 고사가 있습니다. 남쪽 언덕 나뭇가~    moon     
 6 ""                                                                  moon     
 7 "그 동안 정치와 거리를 둬 왔습니다. 그러나 암울한 시대가 저를 정치~ moon     
 8 ""                                                                  moon     
 9 ""                                                                  moon     
10 "‘우리나라 대통령’이 되겠습니다."                                   moon     
# ... with 107 more rows
# A tibble: 96 x 2
   value                                                               president
   <chr>                                                               <chr>    
 1 "존경하는 국민 여러분! 저는 오늘, 국민 한 분 한 분의 꿈이 이루어지~ park     
 2 ""                                                                  park     
 3 "국민 여러분! 저의 삶은 대한민국과 함께 해온 시간이었습니다. 우리~  park     
 4 ""                                                                  park     
 5 "어머니가 흉탄에 돌아가신 후, 견딜 수 없는 고통과 어려움 속에서도 ~ park     
 6 ""                                                                  park     
 7 "그때부터 제 삶은 완전히 다른 길을 가야했습니다. 개인의 삶 대신, ~  park     
 8 ""                                                                  park     
 9 "아버지를 잃는 또 다른 고통과 아픔을 겪고, 저는 평범한 삶을 살고자~ park     
10 ""                                                                  park     
# ... with 86 more rows

bind_rows : 데이터 합치기 (rbind)¶

In [6]:

bind_speeches <- bind_rows(moon, park) %>%
    select(president, value)

In [10]:

print(bind_speeches)

# A tibble: 213 x 2
   president value                                                              
   <chr>     <chr>                                                              
 1 moon      "정권교체 하겠습니다!"                                             
 2 moon      "  정치교체 하겠습니다!"                                           
 3 moon      "  시대교체 하겠습니다!"                                           
 4 moon      "  "                                                               
 5 moon      "  ‘불비불명(不飛不鳴)’이라는 고사가 있습니다. 남쪽 언덕 나뭇가~   
 6 moon      ""                                                                 
 7 moon      "그 동안 정치와 거리를 둬 왔습니다. 그러나 암울한 시대가 저를 정치~
 8 moon      ""                                                                 
 9 moon      ""                                                                 
10 moon      "‘우리나라 대통령’이 되겠습니다."                                  
# ... with 203 more rows

In [16]:

bind_speeches <- rbind(moon, park) %>% 
    select(president, value)
print(bind_speeches)

# A tibble: 213 x 2
   president value                                                              
   <chr>     <chr>                                                              
 1 moon      "정권교체 하겠습니다!"                                             
 2 moon      "  정치교체 하겠습니다!"                                           
 3 moon      "  시대교체 하겠습니다!"                                           
 4 moon      "  "                                                               
 5 moon      "  ‘불비불명(不飛不鳴)’이라는 고사가 있습니다. 남쪽 언덕 나뭇가~   
 6 moon      ""                                                                 
 7 moon      "그 동안 정치와 거리를 둬 왔습니다. 그러나 암울한 시대가 저를 정치~
 8 moon      ""                                                                 
 9 moon      ""                                                                 
10 moon      "‘우리나라 대통령’이 되겠습니다."                                  
# ... with 203 more rows

기본적 전처리 및 토큰화¶

In [24]:

speeches <- bind_speeches %>%
  mutate(value = str_replace_all(value, "[^가-힣]", " ") %>%
             str_squish())

speeches %>% print

# A tibble: 213 x 2
   president value                                                              
   <chr>     <chr>                                                              
 1 moon      "정권교체 하겠습니다"                                              
 2 moon      "정치교체 하겠습니다"                                              
 3 moon      "시대교체 하겠습니다"                                              
 4 moon      ""                                                                 
 5 moon      "불비불명 이라는 고사가 있습니다 남쪽 언덕 나뭇가지에 앉아 년 동안~
 6 moon      ""                                                                 
 7 moon      "그 동안 정치와 거리를 둬 왔습니다 그러나 암울한 시대가 저를 정치~ 
 8 moon      ""                                                                 
 9 moon      ""                                                                 
10 moon      "우리나라 대통령 이 되겠습니다"                                    
# ... with 203 more rows
…
Checking user defined dictionary!

In [26]:

speeches <- speeches %>%
    unnest_tokens(input = value,
                 output = word,
                 token = extractNoun)

In [27]:

speeches %>% print

# A tibble: 2,997 x 2
   president word      
   <chr>     <chr>     
 1 moon      "정권교체"
 2 moon      "하겠습니"
 3 moon      "정치"    
 4 moon      "교체"    
 5 moon      "하겠습니"
 6 moon      "시대"    
 7 moon      "교체"    
 8 moon      "하겠습니"
 9 moon      ""        
10 moon      "불비불명"
# ... with 2,987 more rows

In [28]:

frequency <- speeches %>%
    count(president, word) %>%
    filter(str_count(word) > 1)

frequency %>% print

# A tibble: 1,131 x 3
   president word         n
   <chr>     <chr>    <int>
 1 moon      가동         1
 2 moon      가사         1
 3 moon      가슴         2
 4 moon      가족         1
 5 moon      가족구조     1
 6 moon      가지         4
 7 moon      가치         3
 8 moon      각종         1
 9 moon      감당         1
10 moon      강력         3
# ... with 1,121 more rows
…
In [93]:

frequency_wide <- frequency %>%
    pivot_wider(names_from = president,
               values_from = n,
               values_fill = c(0))

frequency_wide %>% print

# A tibble: 955 x 3
   word      moon  park
   <chr>    <int> <int>
 1 가동         1     0
 2 가사         1     0
 3 가슴         2     0
 4 가족         1     1
 5 가족구조     1     0
 6 가지         4     0
 7 가치         3     1
 8 각종         1     0
 9 감당         1     0
10 강력         3     0
# ... with 945 more rows
…
In [97]:

frequency_wide <- frequency_wide %>%
  mutate(ratio_moon = ((moon + 1)/(sum(moon + 1))),  # moon에서 단어의 비중
         ratio_park = ((park + 1)/(sum(park + 1))),  # park에서 단어의 비중
         odds_ratio = (ratio_moon / ratio_park)) %>%
    arrange(-odds_ratio)
        
frequency_wide %>% print

# A tibble: 955 x 6
   word      moon  park ratio_moon ratio_park odds_ratio
   <chr>    <int> <int>      <dbl>      <dbl>      <dbl>
 1 복지국가     8     0    0.00393   0.000552       7.12
 2 세상         6     0    0.00306   0.000552       5.54
 3 여성         6     0    0.00306   0.000552       5.54
 4 정의         6     0    0.00306   0.000552       5.54
 5 강자         5     0    0.00262   0.000552       4.75
 6 공평         5     0    0.00262   0.000552       4.75
 7 대통령의     5     0    0.00262   0.000552       4.75
 8 보통         5     0    0.00262   0.000552       4.75
 9 상생         5     0    0.00262   0.000552       4.75
10 지방         5     0    0.00262   0.000552       4.75
# ... with 945 more rows
…
$$
log \; odds \;ratio = log({{({n+1 \over total+1})_{Text \;A}} \over {({n+1 \over total+1})_{Text \; B}}})
$$

In [106]:

frequency_wide <- frequency_wide %>%
    mutate(log_odds_ratio = log(odds_ratio))

In [109]:

frequency_wide %>%
    arrange(-log_odds_ratio) %>% print

# A tibble: 955 x 7
   word      moon  park ratio_moon ratio_park odds_ratio log_odds_ratio
   <chr>    <int> <int>      <dbl>      <dbl>      <dbl>          <dbl>
 1 복지국가     8     0    0.00393   0.000552       7.12           1.96
 2 세상         6     0    0.00306   0.000552       5.54           1.71
 3 여성         6     0    0.00306   0.000552       5.54           1.71
 4 정의         6     0    0.00306   0.000552       5.54           1.71
 5 강자         5     0    0.00262   0.000552       4.75           1.56
 6 공평         5     0    0.00262   0.000552       4.75           1.56
 7 대통령의     5     0    0.00262   0.000552       4.75           1.56
 8 보통         5     0    0.00262   0.000552       4.75           1.56
 9 상생         5     0    0.00262   0.000552       4.75           1.56
10 지방         5     0    0.00262   0.000552       4.75           1.56
# ... with 945 more rows

In [110]:

frequency_wide %>%
    arrange(log_odds_ratio) %>% print

# A tibble: 955 x 7
   word      moon  park ratio_moon ratio_park odds_ratio log_odds_ratio
   <chr>    <int> <int>      <dbl>      <dbl>      <dbl>          <dbl>
 1 박근혜       0     8   0.000436    0.00496     0.0879          -2.43
 2 여러분       2    20   0.00131     0.0116      0.113           -2.18
 3 행복         3    23   0.00175     0.0132      0.132           -2.03
 4 실천         0     5   0.000436    0.00331     0.132           -2.03
 5 정보         0     5   0.000436    0.00331     0.132           -2.03
 6 투명         0     5   0.000436    0.00331     0.132           -2.03
 7 과제         0     4   0.000436    0.00276     0.158           -1.84
 8 국정운영     0     4   0.000436    0.00276     0.158           -1.84
 9 시작         0     4   0.000436    0.00276     0.158           -1.84
10 지식         0     4   0.000436    0.00276     0.158           -1.84
# ... with 945 more rows

In [111]:

frequency_wide %>%
    arrange(abs(log_odds_ratio)) %>% print

# A tibble: 955 x 7
   word    moon  park ratio_moon ratio_park odds_ratio log_odds_ratio
   <chr>  <int> <int>      <dbl>      <dbl>      <dbl>          <dbl>
 1 때문       4     3    0.00218    0.00221      0.989        -0.0109
 2 강화       3     2    0.00175    0.00165      1.06          0.0537
 3 부담       3     2    0.00175    0.00165      1.06          0.0537
 4 세계       3     2    0.00175    0.00165      1.06          0.0537
 5 책임       3     2    0.00175    0.00165      1.06          0.0537
 6 협력       3     2    0.00175    0.00165      1.06          0.0537
 7 거대       2     1    0.00131    0.00110      1.19          0.171 
 8 교체       2     1    0.00131    0.00110      1.19          0.171 
 9 근본적     2     1    0.00131    0.00110      1.19          0.171 
10 기반       2     1    0.00131    0.00110      1.19          0.171 
# ... with 945 more rows
…
speeches <- speeches %>%
    unnest_tokens(input = value,
                 output = word,
                 token = extractNoun)

frequency <- speeches %>%
    count(president, word) %>%
    filter(str_count(word) > 1)

frequency %>% print

# A tibble: 1,513 x 3
   president word      n
   <chr>     <chr> <int>
 1 노무현    가슴      2
 2 노무현    가훈      2
 3 노무현    갈등      1
 4 노무현    감옥      1
 5 노무현    강자      1
 6 노무현    개편      4
 7 노무현    개혁      4
 8 노무현    건국      1
 9 노무현    경선      1
10 노무현    경쟁      1
# ... with 1,503 more rows
…
document : 텍스트 구분 기준

n : 단어 빈도

In [137]:

frequency <- frequency %>%
    bind_tf_idf(term = word,
               document = president,
               n = n) %>%
    arrange(-tf_idf)

frequency %>% print

# A tibble: 1,513 x 6
   president word         n      tf   idf tf_idf
   <chr>     <chr>    <int>   <dbl> <dbl>  <dbl>
 1 노무현    공식         6 0.0163  1.39  0.0227
 2 노무현    비젼         6 0.0163  1.39  0.0227
 3 노무현    정계         6 0.0163  1.39  0.0227
 4 이명박    리더십       6 0.0158  1.39  0.0219
 5 노무현    권력         9 0.0245  0.693 0.0170
 6 노무현    개편         4 0.0109  1.39  0.0151
 7 이명박    당원         4 0.0105  1.39  0.0146
 8 이명박    동지         4 0.0105  1.39  0.0146
 9 이명박    일류국가     4 0.0105  1.39  0.0146
10 박근혜    박근혜       8 0.00962 1.39  0.0133
# ... with 1,503 more rows

In [140]:

frequency %>% filter(president == "문재인") %>% print
frequency %>% filter(president == "박근혜") %>% print
frequency %>% filter(president == "이명박") %>% print
frequency %>% filter(president == "노무현") %>% print

# A tibble: 688 x 6
   president word         n      tf   idf  tf_idf
   <chr>     <chr>    <int>   <dbl> <dbl>   <dbl>
 1 문재인    복지국가     8 0.00608 1.39  0.00843
 2 문재인    여성         6 0.00456 1.39  0.00633
 3 문재인    공평         5 0.00380 1.39  0.00527
 4 문재인    담쟁이       5 0.00380 1.39  0.00527
 5 문재인    대통령의     5 0.00380 1.39  0.00527
 6 문재인    보통         5 0.00380 1.39  0.00527
 7 문재인    상생         5 0.00380 1.39  0.00527
 8 문재인    우리나라    10 0.00760 0.693 0.00527
 9 문재인    지방         5 0.00380 1.39  0.00527
10 문재인    확대        10 0.00760 0.693 0.00527
# ... with 678 more rows
# A tibble: 407 x 6
   president word         n      tf   idf  tf_idf
   <chr>     <chr>    <int>   <dbl> <dbl>   <dbl>
 1 박근혜    박근혜       8 0.00962 1.39  0.0133 
 2 박근혜    정보         5 0.00601 1.39  0.00833
 3 박근혜    투명         5 0.00601 1.39  0.00833
 4 박근혜    행복        23 0.0276  0.288 0.00795
 5 박근혜    교육         9 0.0108  0.693 0.00750
 6 박근혜    국정운영     4 0.00481 1.39  0.00666
 7 박근혜    정부        17 0.0204  0.288 0.00588
 8 박근혜    개개인       3 0.00361 1.39  0.00500
 9 박근혜    개인         3 0.00361 1.39  0.00500
10 박근혜    공개         3 0.00361 1.39  0.00500
# ... with 397 more rows
# A tibble: 202 x 6
   president word         n      tf   idf  tf_idf
   <chr>     <chr>    <int>   <dbl> <dbl>   <dbl>
 1 이명박    리더십       6 0.0158  1.39  0.0219 
 2 이명박    당원         4 0.0105  1.39  0.0146 
 3 이명박    동지         4 0.0105  1.39  0.0146 
 4 이명박    일류국가     4 0.0105  1.39  0.0146 
 5 이명박    한나라       7 0.0184  0.693 0.0128 
 6 이명박    나라        15 0.0395  0.288 0.0114 
 7 이명박    도약         3 0.00789 1.39  0.0109 
 8 이명박    일하         3 0.00789 1.39  0.0109 
 9 이명박    사랑         5 0.0132  0.693 0.00912
10 이명박    인생         5 0.0132  0.693 0.00912
# ... with 192 more rows
# A tibble: 216 x 6
   president word         n      tf   idf  tf_idf
   <chr>     <chr>    <int>   <dbl> <dbl>   <dbl>
 1 노무현    공식         6 0.0163  1.39  0.0227 
 2 노무현    비젼         6 0.0163  1.39  0.0227 
 3 노무현    정계         6 0.0163  1.39  0.0227 
 4 노무현    권력         9 0.0245  0.693 0.0170 
 5 노무현    개편         4 0.0109  1.39  0.0151 
 6 노무현    국회의원     3 0.00817 1.39  0.0113 
 7 노무현    남북대화     3 0.00817 1.39  0.0113 
 8 노무현    총리         3 0.00817 1.39  0.0113 
 9 노무현    가훈         2 0.00545 1.39  0.00755
10 노무현    개혁         4 0.0109  0.693 0.00755
# ... with 206 more rows
…
In [172]:

speeches <- raw_speeches %>%
    mutate(value = str_replace_all(value, "[^가-힣]", " "),
          value = str_squish(value))

speeches <- speeches %>%
    unnest_tokens(input = value,
                 output = word,
                 token = extractNoun)

speeches %>% print

# A tibble: 1,002 x 2
   president word  
   <chr>     <chr> 
 1 이명박    존경  
 2 이명박    하    
 3 이명박    국민  
 4 이명박    여러분
 5 이명박    사랑  
 6 이명박    하    
 7 이명박    한나라
 8 이명박    당    
 9 이명박    당원  
10 이명박    동지  
# ... with 992 more rows
…
frequency <- speeches %>%
    count(president, word) %>%
    filter(str_count(word) > 1)

In [176]:

df_wide <- frequency %>%
    pivot_wider(names_from = president,
               values_from = n,
               values_fill = c(0))

df_wide %>% print

# A tibble: 382 x 3
   word  노무현 이명박
   <chr>  <int>  <int>
 1 가슴       2      0
 2 가훈       2      0
 3 갈등       1      0
 4 감옥       1      0
 5 강자       1      0
 6 개편       4      0
 7 개혁       4      0
 8 건국       1      0
 9 경선       1      0
10 경쟁       1      3
# ... with 372 more rows

Q1.3¶

In [183]:

frequency_wide <- df_wide %>%
  mutate(ratio_no = ((노무현 + 1) / (sum(이명박 + 1))),  
         ratio_lee = ((이명박 + 1) / (sum(노무현 + 1))),  
         odds_ratio = (ratio_no / ratio_lee),
         log_odds_ratio = log(odds_ratio)) %>%
    arrange(-log_odds_ratio)
        
frequency_wide %>% print

# A tibble: 382 x 7
   word  노무현 이명박 ratio_no ratio_lee odds_ratio log_odds_ratio
   <chr>  <int>  <int>    <dbl>     <dbl>      <dbl>          <dbl>
 1 권력       9      0  0.0131    0.00134       9.83           2.29
 2 정치       8      0  0.0118    0.00134       8.85           2.18
 3 공식       6      0  0.00919   0.00134       6.88           1.93
 4 비젼       6      0  0.00919   0.00134       6.88           1.93
 5 정계       6      0  0.00919   0.00134       6.88           1.93
 6 개편       4      0  0.00656   0.00134       4.91           1.59
 7 개혁       4      0  0.00656   0.00134       4.91           1.59
 8 당당       4      0  0.00656   0.00134       4.91           1.59
 9 정의       4      0  0.00656   0.00134       4.91           1.59
10 지역       4      0  0.00656   0.00134       4.91           1.59
# ... with 372 more rows
…
speeches <- speeches %>%
    unnest_tokens(input = value,
                 output = word,
                 token = extractNoun)

frequency <- speeches %>%
    count(president, word) %>%
    filter(str_count(word) > 1)

frequency %>% print

# A tibble: 1,657 x 3
   president word       n
   <chr>     <chr>  <int>
 1 노무현    가난       1
 2 노무현    가능       1
 3 노무현    가일       1
 4 노무현    가지       1
 5 노무현    각국       1
 6 노무현    갈등       1
 7 노무현    갈림길     1
 8 노무현    감사       4
 9 노무현    강구       2
10 노무현    강국       1
# ... with 1,647 more rows

Q2.2¶

In [198]:

frequency <- frequency %>%
    bind_tf_idf(term = word,
               document = president,
               n = n) %>%
    arrange(-tf_idf)

frequency %>% print

# A tibble: 1,657 x 6
   president word         n      tf   idf  tf_idf
   <chr>     <chr>    <int>   <dbl> <dbl>   <dbl>
 1 박근혜    행복        21 0.0279  0.693 0.0193 
 2 노무현    동북아      18 0.0231  0.693 0.0160 
 3 박근혜    창조경제     8 0.0106  1.39  0.0147 
 4 노무현    번영         6 0.00770 1.39  0.0107 
 5 문재인    머리         3 0.00711 1.39  0.00986
 6 문재인    문재인       3 0.00711 1.39  0.00986
 7 이명박    선진화       8 0.00668 1.39  0.00927
 8 박근혜    개개인       5 0.00663 1.39  0.00919
 9 박근혜    경제부흥     5 0.00663 1.39  0.00919
10 박근혜    희망        10 0.0133  0.693 0.00919
# ... with 1,647 more rows

In [199]:

frequency %>% filter(president == "문재인") %>% print
frequency %>% filter(president == "박근혜") %>% print
frequency %>% filter(president == "이명박") %>% print
frequency %>% filter(president == "노무현") %>% print

# A tibble: 243 x 6
   president word         n      tf   idf  tf_idf
   <chr>     <chr>    <int>   <dbl> <dbl>   <dbl>
 1 문재인    머리         3 0.00711 1.39  0.00986
 2 문재인    문재인       3 0.00711 1.39  0.00986
 3 문재인    대통령의     5 0.0118  0.693 0.00821
 4 문재인    선거         5 0.0118  0.693 0.00821
 5 문재인    세상         5 0.0118  0.693 0.00821
 6 문재인    광화문       2 0.00474 1.39  0.00657
 7 문재인    권력         2 0.00474 1.39  0.00657
 8 문재인    권력기관     2 0.00474 1.39  0.00657
 9 문재인    말씀         2 0.00474 1.39  0.00657
10 문재인    빈손         2 0.00474 1.39  0.00657
# ... with 233 more rows
# A tibble: 348 x 6
   president word         n      tf   idf  tf_idf
   <chr>     <chr>    <int>   <dbl> <dbl>   <dbl>
 1 박근혜    행복        21 0.0279  0.693 0.0193 
 2 박근혜    창조경제     8 0.0106  1.39  0.0147 
 3 박근혜    개개인       5 0.00663 1.39  0.00919
 4 박근혜    경제부흥     5 0.00663 1.39  0.00919
 5 박근혜    희망        10 0.0133  0.693 0.00919
 6 박근혜    융성         4 0.00531 1.39  0.00735
 7 박근혜    융합         4 0.00531 1.39  0.00735
 8 박근혜    국력         3 0.00398 1.39  0.00552
 9 박근혜    패러다임     3 0.00398 1.39  0.00552
10 박근혜    가치         5 0.00663 0.693 0.00460
# ... with 338 more rows
…
