04 감정분석
…
i Use `spec()` to retrieve the full column specification for this data.
i Specify the column types or set `show_col_types = FALSE` to quiet this message.

word : 감정단어

polarity : 감정의 정도

In [6]:

dic %>% print

# A tibble: 14,854 x 2
   word  polarity
   <chr>    <dbl>
 1 ㅡㅡ        -1
 2 ㅠㅠ        -1
 3 ㅠ_ㅠ       -1
 4 ㅠ          -1
 5 ㅜㅡ        -1
 6 ㅜㅜ        -1
 7 ㅜ_ㅜ       -1
 8 ㅜ.ㅜ       -1
 9 ㅜ          -1
10 ㅗ          -1
# ... with 14,844 more rows
…
In [25]:

raw_news_comment <- read_csv("news_comment_parasite.csv")
raw_news_comment %>% print

Rows: 4150 Columns: 5
-- Column specification ------------------------------------------------------------------------------------------------
Delimiter: ","
chr  (4): reply, press, title, url
dttm (1): reg_time

i Use `spec()` to retrieve the full column specification for this data.
i Specify the column types or set `show_col_types = FALSE` to quiet this message.

# A tibble: 4,150 x 5
   reg_time            reply                                   press title url  
   <dttm>              <chr>                                   <chr> <chr> <chr>
 1 2020-02-10 16:59:02 "정말 우리 집에 좋은 일이 생겨 기쁘고 ~ MBC   '기~  http~
 2 2020-02-10 13:32:24 "와 너무 기쁘다! 이 시국에 정말 내 일~  SBS   [영~  http~
 3 2020-02-10 12:30:09 "우리나라의 영화감독분들 그리고 앞으로~ 한겨~ ‘기~  http~
 4 2020-02-10 13:08:22 "봉준호 감독과 우리나라 대한민국 모두 ~ 한겨~ ‘기~  http~
 5 2020-02-10 16:25:41 "노벨상 탄느낌이네요\n축하축하 합니다"  한겨~ ‘기~  http~
 6 2020-02-10 12:31:45 "기생충 상 받을때 박수 쳤어요.감독상도~ 한겨~ ‘기~  http~
 7 2020-02-10 12:31:33 "대한민국 영화사를 새로 쓰고 계시네요 ~ 한겨~ ‘기~  http~
 8 2020-02-11 09:20:52 "저런게 아카데미상 받으면  '태극기 휘~  한겨~ ‘기~  http~
 9 2020-02-10 20:53:27 "다시한번 보여주세요 영화관에서 보고싶~ 한겨~ ‘기~  http~
10 2020-02-10 20:22:41 "대한민국 BTS와함께  봉준호감독님까지\~ 한겨~ ‘기~  http~
# ... with 4,140 more rows
…
단어 기준으로 토큰화, 감정 점수 부여¶

In [27]:

word_comment <- news_comment %>%
    unnest_tokens(input = reply,
                 output = word,
                 token = "words",
                 drop = F)

word_comment %>%
    select(word, reply) %>% print

# A tibble: 37,718 x 2
   word   reply                                                                
   <chr>  <chr>                                                                
 1 정말   정말 우리 집에 좋은 일이 생겨 기쁘고 행복한 것처럼!! 나의 일인 양 행~
 2 우리   정말 우리 집에 좋은 일이 생겨 기쁘고 행복한 것처럼!! 나의 일인 양 행~
 3 집에   정말 우리 집에 좋은 일이 생겨 기쁘고 행복한 것처럼!! 나의 일인 양 행~
 4 좋은   정말 우리 집에 좋은 일이 생겨 기쁘고 행복한 것처럼!! 나의 일인 양 행~
 5 일이   정말 우리 집에 좋은 일이 생겨 기쁘고 행복한 것처럼!! 나의 일인 양 행~
 6 생겨   정말 우리 집에 좋은 일이 생겨 기쁘고 행복한 것처럼!! 나의 일인 양 행~
 7 기쁘고 정말 우리 집에 좋은 일이 생겨 기쁘고 행복한 것처럼!! 나의 일인 양 행~
 8 행복한 정말 우리 집에 좋은 일이 생겨 기쁘고 행복한 것처럼!! 나의 일인 양 행~
 9 것처럼 정말 우리 집에 좋은 일이 생겨 기쁘고 행복한 것처럼!! 나의 일인 양 행~
10 나의   정말 우리 집에 좋은 일이 생겨 기쁘고 행복한 것처럼!! 나의 일인 양 행~
# ... with 37,708 more rows

In [28]:

word_comment <- word_comment %>%
    left_join(dic, by = "word") %>%
    mutate(polarity = ifelse(is.na(polarity), 0, polarity))

word_comment %>%
    select(word, polarity) %>% print

# A tibble: 37,718 x 2
   word   polarity
   <chr>     <dbl>
 1 정말          0
 2 우리          0
 3 집에          0
 4 좋은          2
 5 일이          0
 6 생겨          0
 7 기쁘고        2
 8 행복한        2
 9 것처럼        0
10 나의          0
# ... with 37,708 more rows
…
In [34]:

top10_sentiment <- word_comment %>%
  filter(sentiment != "neu") %>%
  count(sentiment, word) %>%
  group_by(sentiment) %>%
  slice_max(n, n = 10)

top10_sentiment %>% print

# A tibble: 22 x 3
# Groups:   sentiment [2]
   sentiment word       n
   <chr>     <chr>  <int>
 1 neg       소름      56
 2 neg       소름이    16
 3 neg       아니다    15
 4 neg       우울한     9
 5 neg       해         8
 6 neg       미친       7
 7 neg       가난한     5
 8 neg       어려운     5
 9 neg       힘든       5
10 neg       더러운     4
# ... with 12 more rows
…
score_comment %>% 
    select(score, reply) %>% 
    arrange(-score) %>% print

score_comment %>% 
    select(score, reply) %>% 
    arrange(score) %>% print

`summarise()` has grouped output by 'id'. You can override using the `.groups` argument.

# A tibble: 4,140 x 2
   score reply                                                                  
   <dbl> <chr>                                                                  
 1    11 아니 다른상을 받은것도 충분히 대단하고 굉장하지만 최고의 영예인 작품상~
 2     9 봉준호의 위대한 업적은 진보 영화계의 위대한 업적이고 대한민국의 업적입~
 3     7 이 수상소식을 듣고 억수로 기뻐하는 가족이 있을것 같다. SNS를 통해 자기~
 4     7 감사 감사 감사 수상 소감도 3관왕 답네요                                
 5     6 정말 우리 집에 좋은 일이 생겨 기쁘고 행복한 것처럼!! 나의 일인 양 행복~
 6     6 와 너무 기쁘다! 이 시국에 정말 내 일같이 기쁘고 감사하다!!! 축하드려요~
 7     6 축하 축하 축하 모두들 수고 하셨어요 기생충 화이팅                      
 8     6 축하!!!! 축하!!!!! 오스카의 정복은 무엇보다 시나리오의 힘이다. 작가의 ~
 9     6 조여정 ㆍ예쁜얼굴때문에 연기력을 제대로 평가받지 못해 안타깝던 내가 좋~
10     6 좋은 걸 좋다고 말하지 못하는 인간들이 참 불쌍해지네....댓글 보니 인생~ 
# ... with 4,130 more rows
# A tibble: 4,140 x 2
   score reply                                                                  
   <dbl> <chr>                                                                  
 1    -7 기생충 영화 한국인 으로써 싫다 대단히 싫다!! 가난한 서민들의 마지막 자~
 2    -6 이 페미민국이 잘 되는 게 아주 싫다. 최악의 나쁜일들과 불운, 불행, 어둡~
 3    -5 특정 인물의 성공을 국가의 부흥으로 연관짓는 것은 미개한 발상이다. 봉준~
 4    -4 좌파들이 나라 망신 다 시킨다..ㅠ 설레발 오지게 치더니..꼴랑 각본상 하~ 
 5    -4 부패한 386 민주화 세대 정권의 무분별한 포퓰리즘으로 탄생한 좀비들의 살~
 6    -4 기생충 내용은 좋은데 제목이 그래요. 극 중 송강호가족이 부잣집에 대해서~
 7    -4 이런 감독과 이런 배우보고 좌좀 이라고 지1랄하던 그분들 다 어디계시냐? ~
 8    -4 축하합니다. 근데 현실 세계인 한국에선 그보다 훨씬 나쁜 넘인 조로남불 ~ 
 9    -4 큰일이다....국제적 망신이다...전 세계사람들이 우리나라를 기생충으로 보~
10    -4 더럽고 추잡한 그들만의 리그                                            
# ... with 4,130 more rows
…
In [52]:

frequency_word <- comment %>%
  filter(str_count(word) >= 2) %>%
  count(sentiment, word, sort = T)

frequency_word %>% print

# A tibble: 19,223 x 3
   sentiment word               n
   <chr>     <chr>          <int>
 1 neu       축하합니다       214
 2 neu       봉준호           203
 3 neu       기생충           164
 4 neu       축하드립니다     155
 5 neu       정말             146
 6 neu       대박             134
 7 neu       진짜             121
 8 pos       봉준호           106
 9 pos       정말              97
10 neu       자랑스럽습니다    96
# ... with 19,213 more rows
상대적으로 자주 사용된 단어 비교¶

로그 오즈비

In [54]:

comment_wide <- frequency_word %>%
  filter(sentiment != "neu") %>%  # 중립 제외
  pivot_wider(names_from = sentiment,
              values_from = n,
              values_fill = list(n = 0))

comment_wide %>% print

# A tibble: 8,380 x 3
   word         pos   neg
   <chr>      <int> <int>
 1 봉준호       106    47
 2 정말          97    32
 3 대단하다      83     1
 4 진짜          79    26
 5 자랑스럽다    78     1
 6 축하          63     0
 7 대한민국      61     4
 8 영화          58    18
 9 멋지다        55     0
10 기생충        53    33
# ... with 8,370 more rows

In [55]:

comment_wide <- comment_wide %>%
  mutate(log_odds_ratio = log(((pos + 1) / (sum(pos + 1))) /
                              ((neg + 1) / (sum(neg + 1)))))

comment_wide  %>% print

# A tibble: 8,380 x 4
   word         pos   neg log_odds_ratio
   <chr>      <int> <int>          <dbl>
 1 봉준호       106    47          0.589
 2 정말          97    32          0.876
 3 대단하다      83     1          3.52 
 4 진짜          79    26          0.873
 5 자랑스럽다    78     1          3.46 
 6 축하          63     0          3.95 
 7 대한민국      61     4          2.30 
 8 영화          58    18          0.920
 9 멋지다        55     0          3.81 
10 기생충        53    33          0.250
# ... with 8,370 more rows
…
04-04 감성 사전 수정¶

In [61]:

# "소름"이 사용된 댓글
score_comment %>%
  filter(str_detect(reply, "소름")) %>%
  select(reply) %>% print

# "미친"이 사용된 댓글
score_comment %>%
  filter(str_detect(reply, "미친")) %>%
  select(reply) %>% print

# A tibble: 131 x 1
   reply                                                                       
   <chr>                                                                       
 1 소름돋네요                                                                  
 2 와..진짜소름 저 소리처음질렀어요 눈물나요.. ㅠㅠ                            
 3 생중계 보며 봉준호 할 때 소름이~~~!! ㅠㅠ 수상소감들으며 함께 가슴이 벅차네~
 4 와 보다가 소름 짝 수고들하셨어요                                            
 5 한국어 소감 듣는데 소름돋네 축하드립니다                                    
 6 대단하다!! 봉준호 이름 나오자마자 소름                                      
 7 와우 브라보~ 키아누리브스의 봉준호, 순간 소름이.. 멋지십니다.               
 8 소름 돋네요. 축하합니다                                                     
 9 소름.... 기생충 각본집 산거 다시한번 잘했다는 생각이ㅠㅠㅠ 축하해요!!!!!!   
10 소름끼쳤어요 너무 멋집니다 ^^!!!!                                           
# ... with 121 more rows
…
In [66]:

new_score_comment <- new_word_comment %>%
  group_by(id, reply) %>%
  summarise(score = sum(polarity)) %>%
  ungroup()

new_score_comment %>%
  select(score, reply) %>%
  arrange(-score) %>% print

`summarise()` has grouped output by 'id'. You can override using the `.groups` argument.

# A tibble: 4,140 x 2
   score reply                                                                  
   <dbl> <chr>                                                                  
 1    11 아니 다른상을 받은것도 충분히 대단하고 굉장하지만 최고의 영예인 작품상~
 2     9 봉준호의 위대한 업적은 진보 영화계의 위대한 업적이고 대한민국의 업적입~
 3     8 소름 소름 진짜 멋지다 대단하다                                         
 4     7 이 수상소식을 듣고 억수로 기뻐하는 가족이 있을것 같다. SNS를 통해 자기~
 5     7 감사 감사 감사 수상 소감도 3관왕 답네요                                
 6     6 정말 우리 집에 좋은 일이 생겨 기쁘고 행복한 것처럼!! 나의 일인 양 행복~
 7     6 와 너무 기쁘다! 이 시국에 정말 내 일같이 기쁘고 감사하다!!! 축하드려요~
 8     6 축하 축하 축하 모두들 수고 하셨어요 기생충 화이팅                      
 9     6 생중계 보며 봉준호 할 때 소름이~~~!! ㅠㅠ 수상소감들으며 함께 가슴이 ~ 
10     6 축하!!!! 축하!!!!! 오스카의 정복은 무엇보다 시나리오의 힘이다. 작가의 ~
# ... with 4,130 more rows
…
감정 범주별 주요 단어 탐색¶

In [77]:

new_comment <- new_score_comment %>%
  unnest_tokens(input = reply,
                output = word,
                token = "words",
                drop = F) %>%
  filter(str_detect(word, "[가-힣]") &
           str_count(word) >= 2)

new_comment %>% print

# A tibble: 33,445 x 5
      id reply                                             score sentiment word 
   <int> <chr>                                             <dbl> <chr>     <chr>
 1     1 정말 우리 집에 좋은 일이 생겨 기쁘고 행복한 것처~     6 pos       정말 
 2     1 정말 우리 집에 좋은 일이 생겨 기쁘고 행복한 것처~     6 pos       우리 
 3     1 정말 우리 집에 좋은 일이 생겨 기쁘고 행복한 것처~     6 pos       집에 
 4     1 정말 우리 집에 좋은 일이 생겨 기쁘고 행복한 것처~     6 pos       좋은 
 5     1 정말 우리 집에 좋은 일이 생겨 기쁘고 행복한 것처~     6 pos       일이 
 6     1 정말 우리 집에 좋은 일이 생겨 기쁘고 행복한 것처~     6 pos       생겨 
 7     1 정말 우리 집에 좋은 일이 생겨 기쁘고 행복한 것처~     6 pos       기쁘~
 8     1 정말 우리 집에 좋은 일이 생겨 기쁘고 행복한 것처~     6 pos       행복~
 9     1 정말 우리 집에 좋은 일이 생겨 기쁘고 행복한 것처~     6 pos       것처~
10     1 정말 우리 집에 좋은 일이 생겨 기쁘고 행복한 것처~     6 pos       나의 
# ... with 33,435 more rows

In [79]:

new_frequency_word <- new_comment %>%
  count(sentiment, word, sort = T)

new_frequency_word %>% print

# A tibble: 19,188 x 3
   sentiment word               n
   <chr>     <chr>          <int>
 1 neu       축하합니다       214
 2 neu       봉준호           200
 3 neu       기생충           164
 4 neu       축하드립니다     151
 5 neu       정말             145
 6 neu       대박             134
 7 neu       진짜             120
 8 pos       봉준호           113
 9 pos       정말             110
10 neu       자랑스럽습니다    94
# ... with 19,178 more rows

In [80]:

new_comment_wide <- new_frequency_word %>%
  filter(sentiment != "neu") %>%
  pivot_wider(names_from = sentiment,
              values_from = n,
              values_fill = list(n = 0))

new_comment_wide %>% print

# A tibble: 8,408 x 3
   word         pos   neg
   <chr>      <int> <int>
 1 봉준호       113    43
 2 정말         110    20
 3 진짜          88    18
 4 대단하다      86     1
 5 자랑스럽다    78     1
 6 영화          63    17
 7 축하          63     0
 8 대한민국      61     4
 9 축하합니다    57     9
10 기생충        56    30
# ... with 8,398 more rows

In [81]:

new_comment_wide <- new_comment_wide %>%
  mutate(log_odds_ratio = log(((pos + 1) / (sum(pos + 1))) /
                              ((neg + 1) / (sum(neg + 1)))))

new_comment_wide %>% print

# A tibble: 8,408 x 4
   word         pos   neg log_odds_ratio
   <chr>      <int> <int>          <dbl>
 1 봉준호       113    43          0.674
 2 정말         110    20          1.39 
 3 진짜          88    18          1.27 
 4 대단하다      86     1          3.49 
 5 자랑스럽다    78     1          3.40 
 6 영화          63    17          0.990
 7 축하          63     0          3.88 
 8 대한민국      61     4          2.24 
 9 축하합니다    57     9          1.48 
10 기생충        56    30          0.331
# ... with 8,398 more rows
…
주요 단어가 사용된 댓글 탐색¶

In [87]:

new_score_comment %>%
  filter(sentiment == "pos" & str_detect(reply, "축하")) %>%
  select(reply) %>% print

# A tibble: 189 x 1
   reply                                                                        
   <chr>                                                                        
 1 정말 우리 집에 좋은 일이 생겨 기쁘고 행복한 것처럼!! 나의 일인 양 행복합니다~
 2 와 너무 기쁘다! 이 시국에 정말 내 일같이 기쁘고 감사하다!!! 축하드려요 진심~ 
 3 우리나라의 영화감독분들 그리고 앞으로 그 꿈을 그리는 분들에게 큰 영감을 주시~
 4 아카데미나 다른 상이나 지들만의 잔치지~ 난 대한민국에서 받는 상이 제일 가치 ~
 5 정부에 빨대 꼽은 정치시민단체 기생충들이 득실거리는 떼한민국애서 훌륭한 영화~
 6 대단해요 나는 안봤는데 그렇게 잘 만들어 한국인의 기백을 세계에 알리는 큰 일~ 
 7 나한테 돌아오는게 하나도 없는데 왜이렇게 자랑스럽지?ㅎㅎㅎ 축하 합니다~작품~ 
 8 한국영화 100년사에 한횟을 긋네요. 정말 축하 합니다                           
 9 와 대단하다 진짜 축하드려요!!! 대박 진짜                                     
10 각본상, 국제 영화상 수상 축하. 편집상은 꽝남.                                
# ... with 179 more rows

In [88]:

new_score_comment %>%
  filter(sentiment == "pos" & str_detect(reply, "소름")) %>%
  select(reply) %>% print

# A tibble: 77 x 1
   reply                                                                        
   <chr>                                                                        
 1 생중계 보며 봉준호 할 때 소름이~~~!! ㅠㅠ 수상소감들으며 함께 가슴이 벅차네~ 
 2 와 보다가 소름 짝 수고들하셨어요                                             
 3 대단하다!! 봉준호 이름 나오자마자 소름                                       
 4 와우 브라보~ 키아누리브스의 봉준호, 순간 소름이.. 멋지십니다.                
 5 소름 돋네요. 축하합니다                                                      
 6 소름.... 기생충 각본집 산거 다시한번 잘했다는 생각이ㅠㅠㅠ 축하해요!!!!!!    
 7 봉준호 아저씨 우리나라 자랑입니다 헐리웃 배우들과 화면에 같이 비춰지는게 아~ 
 8 추카해요. 봉준호하는데 막 완전 소름 돋았어요.                                
 9 소름돋아서 닭살돋고.. 그냥 막 감동이라 눈물이 나려했어요.. 대단하고 자랑스럽~
10 한국 영화 최초 아카데미상 수상, 92년 역사의 국제 장편 영화상과 최우수작품상 ~
# ... with 67 more rows

In [89]:

new_score_comment %>%
  filter(sentiment == "neg" & str_detect(reply, "좌빨")) %>%
  select(reply) %>% print

# A tibble: 34 x 1
   reply                                                                        
   <chr>                                                                        
 1 자칭 보수들은 분노의 타이핑중 ㅋㅋㅋㅋㅋㅋ전세계를 좌빨로 몰수는 없고 자존심~
 2 자칭보수 왈 : 미국에 로비했다 ㅋㅋ좌빨영화가 상받을리 없다 ㅋㅋㅋㅋㅋㅋㅋ 본~
 3 좌빨 봉준호 영화는 쳐다도 안본다 ㅋㅋㅋㅋㅋㅋㅋㅋㅋㅋㅋ                      
 4 봉준호 그렇게 미국 싫어하는데 상은 쳐 받으러 가는 좌빨 수준ㅋㅋㅋ            
 5 좌빨 기생충들은 댓글도 달지마라 미국 영화제 수상이 니들하고 뭔상관인데.      
 6 얘들은 왜 인정을 안하냐? ㅋㅋ 니들 이미 변호인 찍을대 부터 송강호 욕해대고 ~ 
 7 넷상 보수들 만큼 이중적인 새1끼들 없음. 봉준호 송강호 보고 종북좌빨 홍어드립~
 8 우선 축하합니다.그리고 다음에는 조씨가족을 모델로한 뻔뻔하고 거짓말을 밥 먹~ 
 9 Korea 대단합니다 김연아 방탄 봉준호 스포츠 음악 영화 못하는게 없어요 좌빨 감~
10 좌빨 감독이라고 블랙리스트에 올랐던 사람을 세계인이 인정해주네. 방구석에 앉~ 
# ... with 24 more rows
…
In [121]:

raw_news_comment <- read_csv("news_comment_BTS.csv")
raw_news_comment %>% print

Rows: 1200 Columns: 5
-- Column specification ------------------------------------------------------------------------------------------------
Delimiter: ","
chr  (4): reply, press, title, url
dttm (1): reg_time

i Use `spec()` to retrieve the full column specification for this data.
i Specify the column types or set `show_col_types = FALSE` to quiet this message.

# A tibble: 1,200 x 5
   reg_time            reply                                   press title url  
   <dttm>              <chr>                                   <chr> <chr> <chr>
 1 2020-09-01 22:58:09 "국보소년단<U+0001F49C>"                한국~ [속~  http~
 2 2020-09-01 09:56:46 "아줌마가 들어도 좋더라"                한국~ [속~  http~
 3 2020-09-01 09:08:06 "팩트체크\n\n현재 빌보드 HOT 100\n\n1~  한국~ [속~  http~
 4 2020-09-01 08:52:32 "방탄소년단이 한국사람이라 너무 자랑스~ 한국~ [속~  http~
 5 2020-09-01 08:36:33 "대단한 BTS, 월드 클래스는 다르네^^ 좋~ 한국~ [속~  http~
 6 2020-09-01 08:34:14 "정국오빠 생일과 더불어 빌보드 1위기사~ 한국~ [속~  http~
 7 2020-09-01 08:32:14 "정말 축하하고 응원하지만\n집에서 여러~ 한국~ [속~  http~
 8 2020-09-01 08:22:09 "기자는 자고 일어났지만, 팬들은 못자고~ 한국~ [속~  http~
 9 2020-09-01 08:17:58 "자랑스럽다!!!!!! 축하합니다!!!!"       한국~ [속~  http~
10 2020-09-01 08:15:37 "SuperM 늘 응원하고 사랑합니다~"        한국~ [속~  http~
# ... with 1,190 more rows

In [216]:

news_comment <- raw_news_comment %>%
  mutate(id = row_number(),
         reply = str_squish(replace_html(reply)))

news_comment %>%
  select(id, reply)  %>% print

# A tibble: 1,200 x 2
      id reply                                                                  
   <int> <chr>                                                                  
 1     1 국보소년단                                                             
 2     2 아줌마가 들어도 좋더라                                                 
 3     3 팩트체크 현재 빌보드 HOT 100 1위 방탄소년단[BTS] 2위 Cardi B ft. Megan~
 4     4 방탄소년단이 한국사람이라 너무 자랑스러워요 ㅠㅠ 우리오래오래 함께하자!
 5     5 대단한 BTS, 월드 클래스는 다르네^^ 좋은 소식!! 응원해요                
 6     6 정국오빠 생일과 더불어 빌보드 1위기사라니ㅠㅠ축제구나                  
 7     7 정말 축하하고 응원하지만 집에서 여러 계정으로 스트리밍 돌리고 사재기하~
 8     8 기자는 자고 일어났지만, 팬들은 못자고 발표 기다림                      
 9     9 자랑스럽다!!!!!! 축하합니다!!!!                                        
10    10 SuperM 늘 응원하고 사랑합니다~                                         
# ... with 1,190 more rows

Q2¶

In [218]:

word_comment <- news_comment %>%
  unnest_tokens(input = reply,
                output = word,
                token = "words", 
                drop = F)         

word_comment %>%
  select(word) %>% print

# A tibble: 11,673 x 1
   word      
   <chr>     
 1 국보소년단
 2 아줌마가  
 3 들어도    
 4 좋더라    
 5 팩트체크  
 6 현재      
 7 빌보드    
 8 hot       
 9 100       
10 1         
# ... with 11,663 more rows
…
word_comment %>%
  select(word, polarity) %>%
  arrange(-polarity) %>% print

Rows: 14854 Columns: 2
-- Column specification ------------------------------------------------------------------------------------------------
Delimiter: ","
chr (1): word
dbl (1): polarity

i Use `spec()` to retrieve the full column specification for this data.
i Specify the column types or set `show_col_types = FALSE` to quiet this message.

# A tibble: 11,673 x 2
   word       polarity
   <chr>         <dbl>
 1 대단한            2
 2 좋은              2
 3 자랑스럽다        2
 4 자랑스럽다        2
 5 자랑스럽다        2
 6 장하다            2
 7 꾸준히            2
 8 행복한            2
 9 대단한            2
10 대단한            2
# ... with 11,663 more rows

In [220]:

score_comment <- word_comment %>%
  group_by(id, reply) %>%
  summarise(score = sum(polarity)) %>%
  ungroup()

score_comment %>%
  select(score, reply) %>%
  arrange(-score) %>% print

`summarise()` has grouped output by 'id'. You can override using the `.groups` argument.

# A tibble: 1,194 x 2
   score reply                                                                  
   <dbl> <chr>                                                                  
 1     8 멋지다, 자랑스럽다, 대단하다 방탄소년단!!! 다이너마이트 빌보드 핫100 1~
 2     7 팬은 아니야. 그래서 저 노력과 업적이 더 대단해보여. 정말 멋지다. 잘생~ 
 3     6 축하 합니다 우리에 보물이네 대한미국에 애국자 들이다 나라 홍보도하고 ~ 
 4     6 우리딸이 보는 눈이 있네 호르몬전쟁 노래부터 애네들 좋아했는데 그때는 ~ 
 5     6 ㅜㅜ . 진짜 이 코로나에 너희들이 빛이여. 핫백 1위라니. 모든 기록을 다 ~
 6     6 축하 축하 아미분들도 축하^^                                            
 7     6 정말 대단하고 자랑스럽습니다.. 국격이 업그레이드 된거 같습니다..축하 ~ 
 8     6 빌보드 핫100 1위 축하해요 여기까지 오느라 힘들었을텐데 수고했어요 앞으~
 9     6 진짜 대단하다. K팝 아시아 최고 넘어서 빌보드 1위 등극 이제 BTS가 그냥 ~
10     6 정국이 생일에 빌보드 핫100 1위라니... 정말 뜻깊은 하루네요ㅠㅠ 좋은 음~
# ... with 1,184 more rows
…
