05 의미망 분석
…
In [6]:

raw_news_comment <- read_csv("news_comment_parasite.csv")
raw_news_comment %>% print

Rows: 4150 Columns: 5
-- Column specification ------------------------------------------------------------------------------------------------
Delimiter: ","
chr  (4): reply, press, title, url
dttm (1): reg_time

i Use `spec()` to retrieve the full column specification for this data.
i Specify the column types or set `show_col_types = FALSE` to quiet this message.

# A tibble: 4,150 x 5
   reg_time            reply                                   press title url  
   <dttm>              <chr>                                   <chr> <chr> <chr>
 1 2020-02-10 16:59:02 "정말 우리 집에 좋은 일이 생겨 기쁘고 ~ MBC   '기~  http~
 2 2020-02-10 13:32:24 "와 너무 기쁘다! 이 시국에 정말 내 일~  SBS   [영~  http~
 3 2020-02-10 12:30:09 "우리나라의 영화감독분들 그리고 앞으로~ 한겨~ ‘기~  http~
 4 2020-02-10 13:08:22 "봉준호 감독과 우리나라 대한민국 모두 ~ 한겨~ ‘기~  http~
 5 2020-02-10 16:25:41 "노벨상 탄느낌이네요\n축하축하 합니다"  한겨~ ‘기~  http~
 6 2020-02-10 12:31:45 "기생충 상 받을때 박수 쳤어요.감독상도~ 한겨~ ‘기~  http~
 7 2020-02-10 12:31:33 "대한민국 영화사를 새로 쓰고 계시네요 ~ 한겨~ ‘기~  http~
 8 2020-02-11 09:20:52 "저런게 아카데미상 받으면  '태극기 휘~  한겨~ ‘기~  http~
 9 2020-02-10 20:53:27 "다시한번 보여주세요 영화관에서 보고싶~ 한겨~ ‘기~  http~
10 2020-02-10 20:22:41 "대한민국 BTS와함께  봉준호감독님까지\~ 한겨~ ‘기~  http~
# ... with 4,140 more rows
…
https://github.com/haven-jeon/KoNLP/blob/master/etcs/KoNLP-API.md

In [11]:

comment_pos <- news_comment %>%
  unnest_tokens(input = reply,
                output = word,
                token = SimplePos22,
                drop = F)

comment_pos %>% 
  select(word, reply) %>% print

# A tibble: 39,956 x 2
   word          reply                                                         
   <chr>         <chr>                                                         
 1 정말/ma       정말 우리 집에 좋은 일이 생겨 기쁘고 행복한 것처럼 나의 일인 ~
 2 우리/np       정말 우리 집에 좋은 일이 생겨 기쁘고 행복한 것처럼 나의 일인 ~
 3 집/nc+에/jc   정말 우리 집에 좋은 일이 생겨 기쁘고 행복한 것처럼 나의 일인 ~
 4 좋/pa+은/et   정말 우리 집에 좋은 일이 생겨 기쁘고 행복한 것처럼 나의 일인 ~
 5 일/nc+이/jc   정말 우리 집에 좋은 일이 생겨 기쁘고 행복한 것처럼 나의 일인 ~
 6 생기/pv+어/ec 정말 우리 집에 좋은 일이 생겨 기쁘고 행복한 것처럼 나의 일인 ~
 7 기쁘/pa+고/ec 정말 우리 집에 좋은 일이 생겨 기쁘고 행복한 것처럼 나의 일인 ~
 8 행복한/nc     정말 우리 집에 좋은 일이 생겨 기쁘고 행복한 것처럼 나의 일인 ~
 9 것/nb+처럼/jc 정말 우리 집에 좋은 일이 생겨 기쁘고 행복한 것처럼 나의 일인 ~
10 나/np+의/jc   정말 우리 집에 좋은 일이 생겨 기쁘고 행복한 것처럼 나의 일인 ~
# ... with 39,946 more rows

separate_rows() : 문자열 분리하여 행 구성¶

sep = "[+]" : 구분자, "+"가 등장할 때 마다 행을 나누어 한 행이 한 단어로 구성

In [12]:

comment_pos <- comment_pos %>%
  separate_rows(word, sep = "[+]")

comment_pos %>% 
  select(word, reply) %>% print

# A tibble: 70,553 x 2
   word    reply                                                                
   <chr>   <chr>                                                                
 1 정말/ma 정말 우리 집에 좋은 일이 생겨 기쁘고 행복한 것처럼 나의 일인 양 행복~
 2 우리/np 정말 우리 집에 좋은 일이 생겨 기쁘고 행복한 것처럼 나의 일인 양 행복~
 3 집/nc   정말 우리 집에 좋은 일이 생겨 기쁘고 행복한 것처럼 나의 일인 양 행복~
 4 에/jc   정말 우리 집에 좋은 일이 생겨 기쁘고 행복한 것처럼 나의 일인 양 행복~
 5 좋/pa   정말 우리 집에 좋은 일이 생겨 기쁘고 행복한 것처럼 나의 일인 양 행복~
 6 은/et   정말 우리 집에 좋은 일이 생겨 기쁘고 행복한 것처럼 나의 일인 양 행복~
 7 일/nc   정말 우리 집에 좋은 일이 생겨 기쁘고 행복한 것처럼 나의 일인 양 행복~
 8 이/jc   정말 우리 집에 좋은 일이 생겨 기쁘고 행복한 것처럼 나의 일인 양 행복~
 9 생기/pv 정말 우리 집에 좋은 일이 생겨 기쁘고 행복한 것처럼 나의 일인 양 행복~
10 어/ec   정말 우리 집에 좋은 일이 생겨 기쁘고 행복한 것처럼 나의 일인 양 행복~
# ... with 70,543 more rows

품사 추출¶
1. 명사 추출¶

In [20]:

noun <- comment_pos %>%
  filter(str_detect(word, "/n")) %>% # "/n" (명사) 추출
  mutate(word = str_remove(word, "/.*$")) # "/,*$ : "/"로 시작하는 모든 문자"

noun %>%
  select(word, reply) %>% print

# A tibble: 27,457 x 2
   word   reply                                                                
   <chr>  <chr>                                                                
 1 우리   정말 우리 집에 좋은 일이 생겨 기쁘고 행복한 것처럼 나의 일인 양 행복~
 2 집     정말 우리 집에 좋은 일이 생겨 기쁘고 행복한 것처럼 나의 일인 양 행복~
 3 일     정말 우리 집에 좋은 일이 생겨 기쁘고 행복한 것처럼 나의 일인 양 행복~
 4 행복한 정말 우리 집에 좋은 일이 생겨 기쁘고 행복한 것처럼 나의 일인 양 행복~
 5 것     정말 우리 집에 좋은 일이 생겨 기쁘고 행복한 것처럼 나의 일인 양 행복~
 6 나     정말 우리 집에 좋은 일이 생겨 기쁘고 행복한 것처럼 나의 일인 양 행복~
 7 일     정말 우리 집에 좋은 일이 생겨 기쁘고 행복한 것처럼 나의 일인 양 행복~
 8 양     정말 우리 집에 좋은 일이 생겨 기쁘고 행복한 것처럼 나의 일인 양 행복~
 9 행복   정말 우리 집에 좋은 일이 생겨 기쁘고 행복한 것처럼 나의 일인 양 행복~
10 행복   정말 우리 집에 좋은 일이 생겨 기쁘고 행복한 것처럼 나의 일인 양 행복~
# ... with 27,447 more rows

In [16]:

noun %>%
  count(word, sort = T) %>% print

# A tibble: 8,069 x 2
   word         n
   <chr>    <int>
 1 영화       463
 2 기생충     445
 3 봉준호     372
 4 것         353
 5 아카데미   252
 6 축하       232
 7 나         230
 8 대한민국   226
 9 자랑       222
10 작품상     218
# ... with 8,059 more rows

2. 동사, 형용사 추출¶

In [18]:

pvpa <- comment_pos %>%
  filter(str_detect(word, "/pv|/pa")) %>%         # "/pv", "/pa" 추출
  mutate(word = str_replace(word, "/.*$", "다"))  # "/"로 시작 문자를 "다"로 바꾸기

pvpa %>%
  select(word, reply) %>% print

# A tibble: 5,317 x 2
   word       reply                                                             
   <chr>      <chr>                                                             
 1 좋다       정말 우리 집에 좋은 일이 생겨 기쁘고 행복한 것처럼 나의 일인 양 ~ 
 2 생기다     정말 우리 집에 좋은 일이 생겨 기쁘고 행복한 것처럼 나의 일인 양 ~ 
 3 기쁘다     정말 우리 집에 좋은 일이 생겨 기쁘고 행복한 것처럼 나의 일인 양 ~ 
 4 축하드리다 정말 우리 집에 좋은 일이 생겨 기쁘고 행복한 것처럼 나의 일인 양 ~ 
 5 기쁘다     정말 우리 집에 좋은 일이 생겨 기쁘고 행복한 것처럼 나의 일인 양 ~ 
 6 기쁘다     와 너무 기쁘다 이 시국에 정말 내 일같이 기쁘고 감사하다 축하드려~ 
 7 기쁘다     와 너무 기쁘다 이 시국에 정말 내 일같이 기쁘고 감사하다 축하드려~ 
 8 축하드리다 와 너무 기쁘다 이 시국에 정말 내 일같이 기쁘고 감사하다 축하드려~ 
 9 불다       우리나라의 영화감독분들 그리고 앞으로 그 꿈을 그리는 분들에게 큰 ~
10 크다       우리나라의 영화감독분들 그리고 앞으로 그 꿈을 그리는 분들에게 큰 ~
# ... with 5,307 more rows

In [21]:

pvpa %>%
  count(word, sort = T) %>% print

# A tibble: 697 x 2
   word           n
   <chr>      <int>
 1 축하드리다   298
 2 받다         215
 3 좋다         170
 4 아니다       156
 5 되다         144
 6 없다         136
 7 같다         130
 8 멋지다       121
 9 만들다       119
10 알다          94
# ... with 687 more rows

3. 추출한 데이터 결합¶

두 글자 이상의 단어만 남김

In [22]:

comment <- bind_rows(noun, pvpa) %>%
  filter(str_count(word) >= 2) %>%
  arrange(id)

comment %>%
  select(word, reply) %>% print

# A tibble: 26,860 x 2
   word       reply                                                            
   <chr>      <chr>                                                            
 1 우리       정말 우리 집에 좋은 일이 생겨 기쁘고 행복한 것처럼 나의 일인 양 ~
 2 행복한     정말 우리 집에 좋은 일이 생겨 기쁘고 행복한 것처럼 나의 일인 양 ~
 3 행복       정말 우리 집에 좋은 일이 생겨 기쁘고 행복한 것처럼 나의 일인 양 ~
 4 행복       정말 우리 집에 좋은 일이 생겨 기쁘고 행복한 것처럼 나의 일인 양 ~
 5 좋다       정말 우리 집에 좋은 일이 생겨 기쁘고 행복한 것처럼 나의 일인 양 ~
 6 생기다     정말 우리 집에 좋은 일이 생겨 기쁘고 행복한 것처럼 나의 일인 양 ~
 7 기쁘다     정말 우리 집에 좋은 일이 생겨 기쁘고 행복한 것처럼 나의 일인 양 ~
 8 축하드리다 정말 우리 집에 좋은 일이 생겨 기쁘고 행복한 것처럼 나의 일인 양 ~
 9 기쁘다     정말 우리 집에 좋은 일이 생겨 기쁘고 행복한 것처럼 나의 일인 양 ~
10 시국       와 너무 기쁘다 이 시국에 정말 내 일같이 기쁘고 감사하다 축하드려~
# ... with 26,850 more rows
…
pair <- comment %>%
  pairwise_count(item = word,
                 feature = id,
                 sort = T)
pair %>% print

Warning message:
"`distinct_()` was deprecated in dplyr 0.7.0.
Please use `distinct()` instead.
See vignette('programming') for more help
This warning is displayed once every 8 hours.
Call `lifecycle::last_lifecycle_warnings()` to see where this warning was generated."

# A tibble: 245,920 x 3
   item1      item2      n
   <chr>      <chr>  <dbl>
 1 영화       기생충   111
 2 기생충     영화     111
 3 감독       봉준호    86
 4 봉준호     감독      86
 5 감독님     봉준호    66
 6 봉준호     감독님    66
 7 만들다     영화      57
 8 영화       만들다    57
 9 기생충     봉준호    54
10 블랙리스트 감독      54
# ... with 245,910 more rows

특정 단어와 자주 함꼐 사용된 단어 탐색¶

In [29]:

pair %>% filter(item1 == "영화") %>% print
pair %>% filter(item1 == "봉준호") %>% print

# A tibble: 2,313 x 3
   item1 item2        n
   <chr> <chr>    <dbl>
 1 영화  기생충     111
 2 영화  만들다      57
 3 영화  봉준호      52
 4 영화  받다        48
 5 영화  한국        46
 6 영화  아카데미    42
 7 영화  같다        41
 8 영화  감독        39
 9 영화  아니다      38
10 영화  좋다        35
# ... with 2,303 more rows
# A tibble: 1,579 x 3
   item1  item2          n
   <chr>  <chr>      <dbl>
 1 봉준호 감독          86
 2 봉준호 감독님        66
 3 봉준호 기생충        54
 4 봉준호 영화          52
 5 봉준호 블랙리스트    48
 6 봉준호 대한민국      38
 7 봉준호 자랑          33
 8 봉준호 축하드리다    30
 9 봉준호 송강호        30
10 봉준호 축하          25
# ... with 1,569 more rows
…
sort = T : 파이 계수가 높은 순으로 정렬

In [109]:

word_cors <- comment %>%
  add_count(word) %>%
  filter(n >= 20) %>%
  pairwise_cor(item = word,
               feature = id,
               sort = T)

word_cors %>% print

# A tibble: 26,732 x 3
   item1      item2      correlation
   <chr>      <chr>            <dbl>
 1 올리다     블랙리스트       0.478
 2 블랙리스트 올리다           0.478
 3 역사       쓰다             0.370
 4 쓰다       역사             0.370
 5 박근혜     블랙리스트       0.322
 6 블랙리스트 박근혜           0.322
 7 가족       조국             0.306
 8 조국       가족             0.306
 9 작품상     감독상           0.276
10 감독상     작품상           0.276
# ... with 26,722 more rows

특정 단어와 관련성이 큰 단어 탐색¶

In [113]:

word_cors %>% 
  filter(item1 == "대한민국") %>% print

# A tibble: 163 x 3
   item1    item2  correlation
   <chr>    <chr>        <dbl>
 1 대한민국 국민        0.182 
 2 대한민국 자랑        0.158 
 3 대한민국 위상        0.149 
 4 대한민국 국격        0.129 
 5 대한민국 위대한      0.100 
 6 대한민국 세계        0.0910
 7 대한민국 문화        0.0757
 8 대한민국 감사합      0.0724
 9 대한민국 나라        0.0715
10 대한민국 오늘        0.0715
# ... with 153 more rows
…
In [126]:

comment_pos %>% print

# A tibble: 70,553 x 3
   reply                                                                id word 
   <chr>                                                             <int> <chr>
 1 정말 우리 집에 좋은 일이 생겨 기쁘고 행복한 것처럼 나의 일인 양 ~     1 정말~
 2 정말 우리 집에 좋은 일이 생겨 기쁘고 행복한 것처럼 나의 일인 양 ~     1 우리~
 3 정말 우리 집에 좋은 일이 생겨 기쁘고 행복한 것처럼 나의 일인 양 ~     1 집/nc
 4 정말 우리 집에 좋은 일이 생겨 기쁘고 행복한 것처럼 나의 일인 양 ~     1 에/jc
 5 정말 우리 집에 좋은 일이 생겨 기쁘고 행복한 것처럼 나의 일인 양 ~     1 좋/pa
 6 정말 우리 집에 좋은 일이 생겨 기쁘고 행복한 것처럼 나의 일인 양 ~     1 은/et
 7 정말 우리 집에 좋은 일이 생겨 기쁘고 행복한 것처럼 나의 일인 양 ~     1 일/nc
 8 정말 우리 집에 좋은 일이 생겨 기쁘고 행복한 것처럼 나의 일인 양 ~     1 이/jc
 9 정말 우리 집에 좋은 일이 생겨 기쁘고 행복한 것처럼 나의 일인 양 ~     1 생기~
10 정말 우리 집에 좋은 일이 생겨 기쁘고 행복한 것처럼 나의 일인 양 ~     1 어/ec
# ... with 70,543 more rows
…
In [129]:

comment_new <- comment_pos %>%
  separate_rows(word, sep = "[+]") %>%
  filter(str_detect(word, "/n|/pv|/pa")) %>%
  mutate(word = ifelse(str_detect(word, "/pv|/pa"),
                       str_replace(word, "/.*$", "다"),
                       str_remove(word, "/.*$"))) %>%
  filter(str_count(word) >= 2) %>%
  arrange(id)

comment_new %>% print

# A tibble: 26,860 x 3
   reply                                                                id word 
   <chr>                                                             <int> <chr>
 1 정말 우리 집에 좋은 일이 생겨 기쁘고 행복한 것처럼 나의 일인 양 ~     1 우리 
 2 정말 우리 집에 좋은 일이 생겨 기쁘고 행복한 것처럼 나의 일인 양 ~     1 좋다 
 3 정말 우리 집에 좋은 일이 생겨 기쁘고 행복한 것처럼 나의 일인 양 ~     1 생기~
 4 정말 우리 집에 좋은 일이 생겨 기쁘고 행복한 것처럼 나의 일인 양 ~     1 기쁘~
 5 정말 우리 집에 좋은 일이 생겨 기쁘고 행복한 것처럼 나의 일인 양 ~     1 행복~
 6 정말 우리 집에 좋은 일이 생겨 기쁘고 행복한 것처럼 나의 일인 양 ~     1 행복 
 7 정말 우리 집에 좋은 일이 생겨 기쁘고 행복한 것처럼 나의 일인 양 ~     1 축하~
 8 정말 우리 집에 좋은 일이 생겨 기쁘고 행복한 것처럼 나의 일인 양 ~     1 행복 
 9 정말 우리 집에 좋은 일이 생겨 기쁘고 행복한 것처럼 나의 일인 양 ~     1 기쁘~
10 와 너무 기쁘다 이 시국에 정말 내 일같이 기쁘고 감사하다 축하드려~     2 기쁘~
# ... with 26,850 more rows

유의어 처리

In [130]:

comment_new <- comment_new %>%
  mutate(word = ifelse(str_detect(word, "감독") &
                      !str_detect(word, "감독상"), "봉준호", word), 
         word = ifelse(word  == "오르다", "올리다", word),
         word = ifelse(str_detect(word, "축하"), "축하", word))

comment_new %>%
  select(word) %>% print

# A tibble: 26,860 x 1
   word  
   <chr> 
 1 우리  
 2 좋다  
 3 생기다
 4 기쁘다
 5 행복한
 6 행복  
 7 축하  
 8 행복  
 9 기쁘다
10 기쁘다
# ... with 26,850 more rows

한 댓글이 하나의 행이 되도록 결합

In [131]:

line_comment <- comment_new %>%
  group_by(id) %>%
  summarise(sentence = paste(word, collapse = " "))

line_comment %>% print

# A tibble: 4,007 x 2
      id sentence                                                               
   <int> <chr>                                                                  
 1     1 우리 좋다 생기다 기쁘다 행복한 행복 축하 행복 기쁘다                   
 2     2 기쁘다 시국 기쁘다 감사하다 축하 진심                                  
 3     3 우리나라 봉준호 불다 크다 영감 봉준호 공동각본쓴 한진 작가님 축하 축하~
 4     4 봉준호 봉준호 우리나라 대한민국 자랑 세계 어디 우리 한국인 힘내다 삽시 
 5     5 노벨상 탄느낌이네요 축하                                               
 6     6 기생충 받다 박수 치다 감독상 기대다 봉준호 봉준호                      
 7     7 대한민국 영화사 쓰다 계시다                                            
 8     8 아카데미상 받다 태극기 휘날리다 광해 명량 전부문 휩쓸어야겠            
 9     9 다시한번 보이다 영화관                                                 
10    10 대한민국 봉준호 대단 한국의 문화 자긍심 가지                           
# ... with 3,997 more rows

바이그램

In [132]:

bigram_comment <- line_comment %>%
  unnest_tokens(input = sentence,
                output = bigram,
                token = "ngrams",
                n = 2)

bigram_comment %>% print

# A tibble: 23,348 x 2
      id bigram       
   <int> <chr>        
 1     1 우리 좋다    
 2     1 좋다 생기다  
 3     1 생기다 기쁘다
 4     1 기쁘다 행복한
 5     1 행복한 행복  
 6     1 행복 축하    
 7     1 축하 행복    
 8     1 행복 기쁘다  
 9     2 기쁘다 시국  
10     2 시국 기쁘다  
# ... with 23,338 more rows

연이어 사용된 단어쌍 빈도 구하기¶

1. 바이그램 분리하기¶
tidyr::separate() : n-gram을 구성하는 두 단어를 분리¶

In [133]:

bigram_seprated <- bigram_comment %>%
  separate(bigram, c("word1", "word2"), sep = " ")

bigram_seprated %>% print

# A tibble: 23,348 x 3
      id word1  word2 
   <int> <chr>  <chr> 
 1     1 우리   좋다  
 2     1 좋다   생기다
 3     1 생기다 기쁘다
 4     1 기쁘다 행복한
 5     1 행복한 행복  
 6     1 행복   축하  
 7     1 축하   행복  
 8     1 행복   기쁘다
 9     2 기쁘다 시국  
10     2 시국   기쁘다
# ... with 23,338 more rows

2. 단어상 빈도 구하기¶

In [135]:

pair_bigram <- bigram_seprated %>%
  count(word1, word2, sort = T) %>%
  na.omit()

pair_bigram %>% print

# A tibble: 19,030 x 3
   word1      word2          n
   <chr>      <chr>      <int>
 1 봉준호     봉준호       155
 2 블랙리스트 올리다        64
 3 진심       축하          64
 4 봉준호     축하          57
 5 봉준호     송강호        34
 6 영화       만들다        31
 7 축하       봉준호        31
 8 대단       축하          27
 9 봉준호     블랙리스트    27
10 대박       축하          26
# ... with 19,020 more rows

In [136]:

# 동시 출현 단어쌍
pair %>%
  filter(item1 == "대한민국") %>% print

# 바이그램 단어쌍
pair_bigram %>%
  filter(word1 == "대한민국") %>% print

# A tibble: 1,010 x 3
   item1    item2        n
   <chr>    <chr>    <dbl>
 1 대한민국 봉준호      70
 2 대한민국 축하        54
 3 대한민국 자랑        44
 4 대한민국 영화        30
 5 대한민국 기생충      27
 6 대한민국 국민        22
 7 대한민국 세계        16
 8 대한민국 아카데미    16
 9 대한민국 위상        15
10 대한민국 좋다        14
# ... with 1,000 more rows
# A tibble: 109 x 3
   word1    word2      n
   <chr>    <chr>  <int>
 1 대한민국 국민      21
 2 대한민국 자랑      15
 3 대한민국 영화      11
 4 대한민국 국격       8
 5 대한민국 위상       7
 6 대한민국 만세       6
 7 대한민국 봉준호     5
 8 대한민국 문화       4
 9 대한민국 영광       4
10 대한민국 기생충     3
# ... with 99 more rows
…
         word1 = ifelse(str_detect(word1, "자랑"), "자랑", word1),
         word2 = ifelse(str_detect(word2, "자랑"), "자랑", word2),

         word1 = ifelse(str_detect(word1, "짝짝짝"), "짝짝짝", word1),
         word2 = ifelse(str_detect(word2, "짝짝짝"), "짝짝짝", word2)) %>%

  filter(word1 != word2)   # 같은 단어 연속 제거

pair_bigram <- bigram_seprated %>%
  count(word1, word2, sort = T) %>%
  na.omit()

pair_bigram %>% print

# A tibble: 18,836 x 3
   word1      word2          n
   <chr>      <chr>      <int>
 1 블랙리스트 올리다        64
 2 진심       축하          64
 3 봉준호     축하          57
 4 대단       축하          42
 5 봉준호     송강호        34
 6 영화       만들다        31
 7 축하       봉준호        31
 8 축하       자랑          28
 9 봉준호     블랙리스트    27
10 대박       축하          26
# ... with 18,826 more rows
…
bigram_seprated_new <- bigram_seprated %>%
  mutate_at(vars("word1", "word2"),
            ~ case_when(
              str_detect(., "대단") ~ "대단",
              str_detect(., "자랑") ~ "자랑",
              str_detect(., "짝짝짝") ~ "짝짝짝",
              T ~ .))

pair_bigram <- bigram_seprated_new %>%
  count(word1, word2, sort = T) %>%
  na.omit()

pair_bigram %>% print

# A tibble: 18,836 x 3
   word1      word2          n
   <chr>      <chr>      <int>
 1 블랙리스트 올리다        64
 2 진심       축하          64
 3 봉준호     축하          57
 4 대단       축하          42
 5 봉준호     송강호        34
 6 영화       만들다        31
 7 축하       봉준호        31
 8 축하       자랑          28
 9 봉준호     블랙리스트    27
10 대박       축하          26
# ... with 18,826 more rows
…
In [146]:

raw_news_comment <- read_csv("news_comment_BTS.csv")
raw_news_comment %>% print

Rows: 1200 Columns: 5
-- Column specification ------------------------------------------------------------------------------------------------
Delimiter: ","
chr  (4): reply, press, title, url
dttm (1): reg_time

i Use `spec()` to retrieve the full column specification for this data.
i Specify the column types or set `show_col_types = FALSE` to quiet this message.

# A tibble: 1,200 x 5
   reg_time            reply                                   press title url  
   <dttm>              <chr>                                   <chr> <chr> <chr>
 1 2020-09-01 22:58:09 "국보소년단<U+0001F49C>"                한국~ [속~  http~
 2 2020-09-01 09:56:46 "아줌마가 들어도 좋더라"                한국~ [속~  http~
 3 2020-09-01 09:08:06 "팩트체크\n\n현재 빌보드 HOT 100\n\n1~  한국~ [속~  http~
 4 2020-09-01 08:52:32 "방탄소년단이 한국사람이라 너무 자랑스~ 한국~ [속~  http~
 5 2020-09-01 08:36:33 "대단한 BTS, 월드 클래스는 다르네^^ 좋~ 한국~ [속~  http~
 6 2020-09-01 08:34:14 "정국오빠 생일과 더불어 빌보드 1위기사~ 한국~ [속~  http~
 7 2020-09-01 08:32:14 "정말 축하하고 응원하지만\n집에서 여러~ 한국~ [속~  http~
 8 2020-09-01 08:22:09 "기자는 자고 일어났지만, 팬들은 못자고~ 한국~ [속~  http~
 9 2020-09-01 08:17:58 "자랑스럽다!!!!!! 축하합니다!!!!"       한국~ [속~  http~
10 2020-09-01 08:15:37 "SuperM 늘 응원하고 사랑합니다~"        한국~ [속~  http~
# ... with 1,190 more rows

In [172]:

library(textclean)
news_comment <- raw_news_comment %>%
  select(reply) %>%
  mutate(id = row_number(),
         reply = str_replace_all(reply, "[^가-힣]", " "),
         reply = str_squish(reply))

news_comment %>%
  select(id, reply) %>% print

# A tibble: 1,200 x 2
      id reply                                                                  
   <int> <chr>                                                                  
 1     1 국보소년단                                                             
 2     2 아줌마가 들어도 좋더라                                                 
 3     3 팩트체크 현재 빌보드 위 방탄소년단 위 위 위 위 위 위 위 위 위          
 4     4 방탄소년단이 한국사람이라 너무 자랑스러워요 우리오래오래 함께하자      
 5     5 대단한 월드 클래스는 다르네 좋은 소식 응원해요                         
 6     6 정국오빠 생일과 더불어 빌보드 위기사라니 축제구나                      
 7     7 정말 축하하고 응원하지만 집에서 여러 계정으로 스트리밍 돌리고 사재기하~
 8     8 기자는 자고 일어났지만 팬들은 못자고 발표 기다림                       
 9     9 자랑스럽다 축하합니다                                                  
10    10 늘 응원하고 사랑합니다                                                 
# ... with 1,190 more rows
…
comment <- comment_pos %>%
  separate_rows(word, sep = "[+]") %>%
  filter(str_detect(word, "/n|/pv|/pa")) %>%
  mutate(word = ifelse(str_detect(word, "/pv|/pa"),
                       str_replace(word, "/.*$", "다"),
                       str_remove(word, "/.*$"))) %>%
  filter(str_count(word) >= 2) %>%
  arrange(id)

comment %>% select(word, reply) %>% print

# A tibble: 7,539 x 2
   word       reply                                                            
   <chr>      <chr>                                                            
 1 국보소년   국보소년단                                                       
 2 아줌마     아줌마가 들어도 좋더라                                           
 3 들다       아줌마가 들어도 좋더라                                           
 4 좋다       아줌마가 들어도 좋더라                                           
 5 팩트체크   팩트체크 현재 빌보드 위 방탄소년단 위 위 위 위 위 위 위 위 위    
 6 빌보드     팩트체크 현재 빌보드 위 방탄소년단 위 위 위 위 위 위 위 위 위    
 7 방탄소년단 팩트체크 현재 빌보드 위 방탄소년단 위 위 위 위 위 위 위 위 위    
 8 방탄소년단 방탄소년단이 한국사람이라 너무 자랑스러워요 우리오래오래 함께하자
 9 한국사람   방탄소년단이 한국사람이라 너무 자랑스러워요 우리오래오래 함께하자
10 자랑       방탄소년단이 한국사람이라 너무 자랑스러워요 우리오래오래 함께하자
# ... with 7,529 more rows
…
