06 토픽 모델링
…
raw_news_comment <- read_csv("news_comment_parasite.csv") %>%
  mutate(id = row_number())
raw_news_comment %>% print

Rows: 4150 Columns: 5
-- Column specification ------------------------------------------------------------------------------------------------
Delimiter: ","
chr  (4): reply, press, title, url
dttm (1): reg_time

i Use `spec()` to retrieve the full column specification for this data.
i Specify the column types or set `show_col_types = FALSE` to quiet this message.

# A tibble: 4,150 x 6
   reg_time            reply                             press title url      id
   <dttm>              <chr>                             <chr> <chr> <chr> <int>
 1 2020-02-10 16:59:02 "정말 우리 집에 좋은 일이 생겨 ~  MBC   '기~  http~     1
 2 2020-02-10 13:32:24 "와 너무 기쁘다! 이 시국에 정말 ~ SBS   [영~  http~     2
 3 2020-02-10 12:30:09 "우리나라의 영화감독분들 그리고 ~ 한겨~ ‘기~  http~     3
 4 2020-02-10 13:08:22 "봉준호 감독과 우리나라 대한민국~ 한겨~ ‘기~  http~     4
 5 2020-02-10 16:25:41 "노벨상 탄느낌이네요\n축하축하 ~  한겨~ ‘기~  http~     5
 6 2020-02-10 12:31:45 "기생충 상 받을때 박수 쳤어요.감~ 한겨~ ‘기~  http~     6
 7 2020-02-10 12:31:33 "대한민국 영화사를 새로 쓰고 계~  한겨~ ‘기~  http~     7
 8 2020-02-11 09:20:52 "저런게 아카데미상 받으면  '태극~ 한겨~ ‘기~  http~     8
 9 2020-02-10 20:53:27 "다시한번 보여주세요 영화관에서 ~ 한겨~ ‘기~  http~     9
10 2020-02-10 20:22:41 "대한민국 BTS와함께  봉준호감독~  한겨~ ‘기~  http~    10
# ... with 4,140 more rows
…
  # 댓글 내 중복 단어 제거
  group_by(id) %>%
  distinct(word, .keep_all = T) %>%
  ungroup() %>%
  select(id, word)

comment %>% print

# A tibble: 21,457 x 2
      id word    
   <int> <chr>   
 1     1 우리    
 2     1 행복    
 3     2 시국    
 4     2 감사    
 5     2 하다    
 6     2 진심    
 7     3 우리나라
 8     3 영화감독
 9     3 영감    
10     3 봉감    
# ... with 21,447 more rows

In [11]:

count_word <- comment %>%
  add_count(word) %>%
  filter(n <= 200) %>%
  select(-n)

count_word %>% print

# A tibble: 18,210 x 2
      id word      
   <int> <chr>     
 1     1 우리      
 2     1 행복      
 3     2 시국      
 4     2 감사      
 5     2 하다      
 6     2 진심      
 7     3 우리나라  
 8     3 영화감독  
 9     3 영감      
10     3 공동각본쓴
# ... with 18,200 more rows

불용어, 유의어 확인¶

In [12]:

count_word %>%
  count(word, sort = T) %>%
  print

# A tibble: 6,022 x 2
   word           n
   <chr>      <int>
 1 작품상       200
 2 자랑         193
 3 블랙리스트   173
 4 조국         170
 5 한국         165
 6 대박         148
 7 세계         140
 8 수상         135
 9 미국         128
10 들이         123
# ... with 6,012 more rows
…
LDA 모델 생성¶
1. DTM (문서 단어 행렬) 생성¶
1.1 문서별 단어 빈도

In [15]:

count_word_doc <- count_word %>%
  count(id, word, sort = T)

count_word_doc %>% print

# A tibble: 18,198 x 3
      id word           n
   <int> <chr>      <int>
 1    35 한국           2
 2   206 자랑           2
 3   566 자랑           2
 4   578 자랑           2
 5   598 자랑           2
 6  1173 한국           2
 7  1599 한국           2
 8  1762 한국           2
 9  2240 한국           2
10  2307 방탄소년단     2
# ... with 18,188 more rows
…
06-03 토픽별 주요 단어 탐색¶

beta 추출

tidytext::tidy()¶

matrix = "beta"

In [23]:

term_topic <- tidy(lda_model, matrix = "beta")
term_topic %>% print

# A tibble: 48,128 x 3
   topic term       beta
   <int> <chr>     <dbl>
 1     1 한국  0.000388 
 2     2 한국  0.0000336
 3     3 한국  0.0215   
 4     4 한국  0.0000340
 5     5 한국  0.000392 
 6     6 한국  0.0000351
 7     7 한국  0.0461   
 8     8 한국  0.0000351
 9     1 자랑  0.00109  
10     2 자랑  0.0000336
# ... with 48,118 more rows
…
토픽별 주요 단어 탐색¶
특정 토픽에서 beta가 높은 단어 탐색

In [27]:

term_topic %>%
  filter(topic == 6) %>%
  arrange(-beta) %>% print

# A tibble: 6,016 x 3
   topic term      beta
   <int> <chr>    <dbl>
 1     6 대박   0.0302 
 2     6 역사   0.0249 
 3     6 작품   0.0218 
 4     6 미국   0.0214 
 5     6 오늘   0.0190 
 6     6 호감   0.0155 
 7     6 시상식 0.0144 
 8     6 소감   0.0130 
 9     6 국제   0.00881
10     6 정경심 0.00845
# ... with 6,006 more rows
…
	이름  표현      이해  전세계  상은      해외    다들  이거    

토픽별 주요 단어 시각화¶
토픽별로 beta가 가장 높은 단어 추출

In [29]:

# 토픽별 beta 상위 10개 단어 추출
top_term_topic <- term_topic %>%
  group_by(topic) %>%
  slice_max(beta, n = 10)

top_term_topic %>% print

# A tibble: 81 x 3
# Groups:   topic [8]
   topic term      beta
   <int> <chr>    <dbl>
 1     1 수상   0.0423 
 2     1 들이   0.0335 
 3     1 좌파   0.0261 
 4     1 미국   0.0226 
 5     1 빨갱이 0.0145 
 6     1 하면   0.0106 
 7     1 얘기   0.00849
 8     1 와우   0.00779
 9     1 니들   0.00779
10     1 호감   0.00673
# ... with 71 more rows
…
06-04 문서를 토픽별로 분류¶

gamma 추출

In [33]:

doc_topic <- tidy(lda_model, matrix = "gamma")
doc_topic %>% print

# A tibble: 25,752 x 3
   document topic  gamma
   <chr>    <int>  <dbl>
 1 35           1 0.0919
 2 206          1 0.132 
 3 566          1 0.108 
 4 578          1 0.132 
 5 598          1 0.110 
 6 1173         1 0.125 
 7 1599         1 0.112 
 8 1762         1 0.0962
 9 2240         1 0.108 
10 2307         1 0.102 
# ... with 25,742 more rows
…
	1

문서를 확률이 가장 높은 토픽으로 분류¶
문서별로 확률이 가장 높은 토픽 추출

In [36]:

doc_class <- doc_topic %>%
  group_by(document) %>%
  slice_max(gamma, n = 1)

doc_class %>% print

# A tibble: 5,454 x 3
# Groups:   document [3,219]
   document topic gamma
   <chr>    <int> <dbl>
 1 1            8 0.159
 2 10           8 0.15 
 3 100          5 0.153
 4 1000         6 0.15 
 5 1001         1 0.15 
 6 1001         3 0.15 
 7 1002         2 0.137
 8 1002         6 0.137
 9 1002         7 0.137
10 1003         8 0.142
# ... with 5,444 more rows

원문에 확률이 가장 높은 토픽 번호 부여

In [37]:

doc_class$document <- as.integer(doc_class$document)

# 원문에 토픽 번호 부여
news_comment_topic <- raw_news_comment %>%
  left_join(doc_class, by = c("id" = "document"))

news_comment_topic %>%
  select(id, topic) %>% print

# A tibble: 6,385 x 2
      id topic
   <int> <int>
 1     1     8
 2     2     8
 3     3     3
 4     4     7
 5     5     3
 6     5     4
 7     6     5
 8     7    NA
 9     8     1
10     9     4
# ... with 6,375 more rows
…
문서를 한 토픽으로만 분류¶
slice_sample() : 무작위 추출¶

In [40]:

set.seed(1234)
doc_class_unique <- doc_topic %>%
  group_by(document) %>%
  slice_max(gamma, n = 1) %>%
  slice_sample(n = 1)

doc_class_unique %>% count(document, sort = T) %>% print

# A tibble: 3,219 x 2
# Groups:   document [3,219]
   document     n
   <chr>    <int>
 1 1            1
 2 10           1
 3 100          1
 4 1000         1
 5 1001         1
 6 1002         1
 7 1003         1
 8 1004         1
 9 1005         1
10 1006         1
# ... with 3,209 more rows
…
토픽별 주요 문서 살펴보고 토픽 이름 작명¶
원문을 읽기 편하게 전처리, gamma가 높은 순으로 정렬

In [45]:

library(textclean)
comment_topic <- news_comment_topic %>%
  mutate(reply = str_squish(replace_html(reply))) %>%
  arrange(-gamma) 

comment_topic %>%
  select(gamma, reply) %>% print

# A tibble: 5,454 x 2
   gamma reply                                                                  
   <dbl> <chr>                                                                  
 1 0.241 2019년 헐리우드 매출 중국 50.3억불, 일본 8.6억불, 한국 10.3억불로 헐리~
 2 0.239 한편으론 봉준호감독이 아카데미시상식을 로컬영화제라고 말했던게 신의한~ 
 3 0.233 ‘실력파’로 알려진 중견 감독 ㄱ씨는 2013년말~2014년초 서울 강남의 한 ~  
 4 0.227 기생충 보면서 누가 기생충인가 봐더니 조여정이 박근혜역 이정은이가 짐사~
 5 0.225 봉준호 감독과 송강호 배우는 이명박그네 정권 시절 문화계 블랙리스트 였~ 
 6 0.223 이제 닭근혜 피해서 외국으로 피신한 CJ 사람들 다 귀국해라 고생들 많았다~
 7 0.221 이 말인즉, 작품성 예술성 심지어 대중성 까지 모두 잡았다는 얘기. 칸영화~
 8 0.220 기생충이 세계적인 영화제를 수상한건 매우 비정치적이고 현실세계를 제대~ 
 9 0.219 감빵 박근혜가 얼마나 대단하냐? 봉준호, 송강호 두 사람을 다 블랙리스트~ 
10 0.216 요즘 오스카는 대중성[어렵지 않고 재미가 있는] 없는 영화에 상을 안주는 ~
# ... with 5,444 more rows
…
토픽 이름과 주요 단어 시각화¶

In [48]:

# 토픽 이름 결합하기
top_term_topic_name <- top_term_topic %>%
  left_join(name_topic, name_topic, by = "topic")

top_term_topic_name %>% print

# A tibble: 81 x 4
# Groups:   topic [8]
   topic term      beta name                                 
   <int> <chr>    <dbl> <chr>                                
 1     1 수상   0.0423  1. 작품상 수상 축하, 정치적 댓글 비판
 2     1 들이   0.0335  1. 작품상 수상 축하, 정치적 댓글 비판
 3     1 좌파   0.0261  1. 작품상 수상 축하, 정치적 댓글 비판
 4     1 미국   0.0226  1. 작품상 수상 축하, 정치적 댓글 비판
 5     1 빨갱이 0.0145  1. 작품상 수상 축하, 정치적 댓글 비판
 6     1 하면   0.0106  1. 작품상 수상 축하, 정치적 댓글 비판
 7     1 얘기   0.00849 1. 작품상 수상 축하, 정치적 댓글 비판
 8     1 와우   0.00779 1. 작품상 수상 축하, 정치적 댓글 비판
 9     1 니들   0.00779 1. 작품상 수상 축하, 정치적 댓글 비판
10     1 호감   0.00673 1. 작품상 수상 축하, 정치적 댓글 비판
# ... with 71 more rows
…
모델 추출

In [53]:

optimal_model <- models %>%
  filter(topics == 8) %>%
  pull(LDA_model) %>%              # 모델 추출
  .[[1]]                           # list 추출

In [54]:

# optimal_model
tidy(optimal_model, matrix = "beta") %>% print

# A tibble: 48,128 x 3
   topic term       beta
   <int> <chr>     <dbl>
 1     1 한국  0.000388 
 2     2 한국  0.0000336
 3     3 한국  0.0215   
 4     4 한국  0.0000340
 5     5 한국  0.000392 
 6     6 한국  0.0000351
 7     7 한국  0.0461   
 8     8 한국  0.0000351
 9     1 자랑  0.00109  
10     2 자랑  0.0000336
# ... with 48,118 more rows
…
i Use `spec()` to retrieve the full column specification for this data.
i Specify the column types or set `show_col_types = FALSE` to quiet this message.

In [111]:

speeches <- speeches_raw %>%
  unnest_tokens(input = content,
                output = sentence,
                token = "sentences",
                drop = F)

speeches %>% print

# A tibble: 39,714 x 10
   title     date  president place event source paragraph content    id sentence
   <chr>     <chr> <chr>     <chr> <chr> <chr>      <dbl> <chr>   <dbl> <chr>   
 1 제16 대 ~ 2003~ 노무현    국내  취임~ 노무~          1 주한외~     1 주한외~ 
 2 제16 대 ~ 2003~ 노무현    국내  취임~ 노무~          1 주한외~     1 저의 대~
 3 제16 대 ~ 2003~ 노무현    국내  취임~ 노무~          1 주한외~     1 이제 막~
 4 제16 대 ~ 2003~ 노무현    국내  취임~ 노무~          1 주한외~     1 참으로 ~
 5 제16 대 ~ 2003~ 노무현    국내  취임~ 노무~          1 주한외~     1 그러나 ~
 6 제16 대 ~ 2003~ 노무현    국내  취임~ 노무~          1 주한외~     1 신명을 ~
 7 제16 대 ~ 2003~ 노무현    국내  취임~ 노무~          1 주한외~     1 존경하~ 
 8 제16 대 ~ 2003~ 노무현    국내  취임~ 노무~          1 주한외~     1 지금 우~
 9 제16 대 ~ 2003~ 노무현    국내  취임~ 노무~          1 주한외~     1 도약과 ~
10 제16 대 ~ 2003~ 노무현    국내  취임~ 노무~          1 주한외~     1 우리 국~
# ... with 39,704 more rows
…
# 명사추출
library(tidytext)
library(KoNLP)

nouns_speeches <- speeches %>%
  unnest_tokens(input = sentence,
                output = word,
                token = extractNoun,
                drop = F) %>%
  filter(str_count(word) > 1)

nouns_speeches %>% print

# A tibble: 275,776 x 11
   title     date  president place event source paragraph content    id sentence
   <chr>     <chr> <chr>     <chr> <chr> <chr>      <dbl> <chr>   <dbl> <chr>   
 1 제16 대 ~ 2003~ 노무현    국내  취임~ 노무~          1 주한외~     1 주한외~ 
 2 제16 대 ~ 2003~ 노무현    국내  취임~ 노무~          1 주한외~     1 주한외~ 
 3 제16 대 ~ 2003~ 노무현    국내  취임~ 노무~          1 주한외~     1 주한외~ 
 4 제16 대 ~ 2003~ 노무현    국내  취임~ 노무~          1 주한외~     1 주한외~ 
 5 제16 대 ~ 2003~ 노무현    국내  취임~ 노무~          1 주한외~     1 주한외~ 
 6 제16 대 ~ 2003~ 노무현    국내  취임~ 노무~          1 주한외~     1 주한외~ 
 7 제16 대 ~ 2003~ 노무현    국내  취임~ 노무~          1 주한외~     1 주한외~ 
 8 제16 대 ~ 2003~ 노무현    국내  취임~ 노무~          1 주한외~     1 주한외~ 
 9 제16 대 ~ 2003~ 노무현    국내  취임~ 노무~          1 주한외~     1 주한외~ 
10 제16 대 ~ 2003~ 노무현    국내  취임~ 노무~          1 주한외~     1 저의 대~
# ... with 275,766 more rows, and 1 more variable: word <chr>
…
nouns_speeches <- nouns_speeches %>%
  group_by(id) %>%
  distinct(word, .keep_all = T) %>%
  ungroup()

In [114]:

nouns_speeches <- nouns_speeches %>%
  add_count(word) %>%
  filter(n <= 100) %>%
  select(-n)

nouns_speeches %>% print

# A tibble: 97,634 x 11
   title     date  president place event source paragraph content    id sentence
   <chr>     <chr> <chr>     <chr> <chr> <chr>      <dbl> <chr>   <dbl> <chr>   
 1 제16 대 ~ 2003~ 노무현    국내  취임~ 노무~          1 주한외~     1 주한외~ 
 2 제16 대 ~ 2003~ 노무현    국내  취임~ 노무~          1 주한외~     1 주한외~ 
 3 제16 대 ~ 2003~ 노무현    국내  취임~ 노무~          1 주한외~     1 주한외~ 
 4 제16 대 ~ 2003~ 노무현    국내  취임~ 노무~          1 주한외~     1 주한외~ 
 5 제16 대 ~ 2003~ 노무현    국내  취임~ 노무~          1 주한외~     1 주한외~ 
 6 제16 대 ~ 2003~ 노무현    국내  취임~ 노무~          1 주한외~     1 저의 대~
 7 제16 대 ~ 2003~ 노무현    국내  취임~ 노무~          1 주한외~     1 저의 대~
 8 제16 대 ~ 2003~ 노무현    국내  취임~ 노무~          1 주한외~     1 이제 막~
 9 제16 대 ~ 2003~ 노무현    국내  취임~ 노무~          1 주한외~     1 이제 막~
10 제16 대 ~ 2003~ 노무현    국내  취임~ 노무~          1 주한외~     1 이제 막~
# ... with 97,624 more rows, and 1 more variable: word <chr>
…
stopword <- c("들이", "하다", "하게", "하면", "해서", "이번", "하네",
              "해요", "이것", "니들", "하기", "하지", "한거", "해주",
              "그것", "어디", "여기", "까지", "이거", "하신", "만큼")

In [116]:

nouns_speeches <- nouns_speeches %>%
  filter(!word %in% stopword)

In [117]:

nouns_speeches %>% print

# A tibble: 97,634 x 11
   title     date  president place event source paragraph content    id sentence
   <chr>     <chr> <chr>     <chr> <chr> <chr>      <dbl> <chr>   <dbl> <chr>   
 1 제16 대 ~ 2003~ 노무현    국내  취임~ 노무~          1 주한외~     1 주한외~ 
 2 제16 대 ~ 2003~ 노무현    국내  취임~ 노무~          1 주한외~     1 주한외~ 
 3 제16 대 ~ 2003~ 노무현    국내  취임~ 노무~          1 주한외~     1 주한외~ 
 4 제16 대 ~ 2003~ 노무현    국내  취임~ 노무~          1 주한외~     1 주한외~ 
 5 제16 대 ~ 2003~ 노무현    국내  취임~ 노무~          1 주한외~     1 주한외~ 
 6 제16 대 ~ 2003~ 노무현    국내  취임~ 노무~          1 주한외~     1 저의 대~
 7 제16 대 ~ 2003~ 노무현    국내  취임~ 노무~          1 주한외~     1 저의 대~
 8 제16 대 ~ 2003~ 노무현    국내  취임~ 노무~          1 주한외~     1 이제 막~
 9 제16 대 ~ 2003~ 노무현    국내  취임~ 노무~          1 주한외~     1 이제 막~
10 제16 대 ~ 2003~ 노무현    국내  취임~ 노무~          1 주한외~     1 이제 막~
# ... with 97,624 more rows, and 1 more variable: word <chr>
…
In [130]:

doc_class$document <- as.integer(doc_class$document)

In [131]:

speeches_topic <- speeches_raw %>%
  left_join(doc_class, by = c("id" = "document"))

In [132]:

speeches_topic %>% print

# A tibble: 813 x 11
   title  date  president place event source paragraph content    id topic gamma
   <chr>  <chr> <chr>     <chr> <chr> <chr>      <dbl> <chr>   <dbl> <int> <dbl>
 1 제16 ~ 2003~ 노무현    국내  취임~ 노무~          1 "주한~      1     7 0.157
 2 제16 ~ 2003~ 노무현    국내  취임~ 노무~          1 "존경~      2     5 0.232
 3 제16 ~ 2003~ 노무현    국내  기념~ 노무~          1 "존경~      3     7 0.236
 4 2·28~  2003~ 노무현    국내  기념~ 노무~          1 "43년 ~     4     5 0.287
 5 학군~  2003~ 노무현    국내  기념~ 노무~          1 "친애~      5     4 0.553
 6 제84~  2003~ 노무현    국내  기념~ 노무~          1 "존경~      6     5 0.399
 7 참여~  2003~ 노무현    국내  기타  노무~          1 "■ 인~      7     2 0.332
 8 육군~  2003~ 노무현    국내  기념~ 노무~          1 "친애~      8     4 0.589
 9 해군~  2003~ 노무현    국내  기념~ 노무~          1 "친애~      9     4 0.513
10 3·15~  2003~ 노무현    국내  기념~ 노무~          1 "존경~     10     5 0.227
# ... with 803 more rows
…
Q11¶

In [134]:

speeches_topic %>%
  filter(topic == 9) %>%
  arrange(-gamma) %>%
  select(content) %>% print

# A tibble: 148 x 1
   content                                                                      
   <chr>                                                                        
 1 안녕하십니까, 이처럼 따뜻하게 맞아주셔서 감사합니다. 나지모프 대외경제청장과~
 2 존경하는 룰라 대통령 각하 내외분, 그리고 귀빈 여러분, 오늘 저녁, BRICs 국가~ 
 3 존경하는 압델아지즈 부테플리카 알제리 대통령 각하, 그리고 내외 귀빈 여러분, ~
 4 존경하는 압둘 라흐만 알 라쉬드 상의연합회 회장, 압둘 라흐만 알 안카리 경협위~
 5 존경하는 바세스쿠 대통령 각하, 그리고 귀빈 여러분, 각하와 일행 여러분의 방한~
 6 존경하는 일함 알리예프 대통령 각하 내외분, 그리고 귀빈 여러분, 나와 우리 일~ 
 7 존경하는 키르츠네르 대통령 각하 내외분, 그리고 귀빈 여러분, 우리 내외와 일행~
 8 존경하는,카리모프, 대통령 각하 내외분, 그리고 귀빈 여러분, 각하 내외분과 일~ 
 9 2005년 5월 10일 존경하는 카리모프 대통령 각하 내외분, 그리고 귀빈 여러분, 우~
10 존경하는 빌토르 바비욱 루마니아 상공회의소 회장, 그리고 손경식 대한상의 회장~
# ... with 138 more rows
