07 타다 금지법 기사 댓글 분석
…
library(textclean)

In [7]:

tada <- raw_tada %>%
  filter(str_count(reply, " ") >= 1) %>%                   # 띄어쓰기 1개 이상 추출
  mutate(reply_raw = str_squish(replace_html(reply)),      # 원문 보유
         reply = str_replace_all(reply, "[^가-힣]", " "),  # 한글만 남기기
         reply = str_squish(reply))

In [10]:

tada %>% print

# A tibble: 5,123 x 9
   reg_time            reply      press title url   sympathyCount antipathyCount
   <dttm>              <chr>      <chr> <chr> <chr>         <dbl>          <dbl>
 1 2019-12-05 20:29:54 분단 백년~ 연합~ '타~  http~             0              0
 2 2019-12-05 18:11:40 러다이트 ~ 연합~ '타~  http~             0              0
 3 2019-12-05 17:43:39 저런것들~  연합~ '타~  http~             0              0
 4 2019-12-05 17:19:57 우버나 그~ 연합~ '타~  http~             0              0
 5 2019-12-05 17:11:39 택시승차~  연합~ '타~  http~             0              0
 6 2019-12-05 17:01:30 자율주행~  연합~ '타~  http~             0              0
 7 2019-12-05 16:59:57 옛말에도 ~ 연합~ '타~  http~             0              0
 8 2019-12-05 16:57:06 택시 자격~ 연합~ '타~  http~             0              0
 9 2019-12-05 16:48:51 이런 편법~ 연합~ '타~  http~             0              0
10 2019-12-05 16:46:22 똥남아보~  연합~ '타~  http~             0              0
# ... with 5,113 more rows, and 2 more variables: id <int>, reply_raw <chr>
…
02 공감, 비공감 댓글 비교¶

공감 여부별 단어 빈도를 구한 다음, 데이터를 wide form으로 변형해 로그 오즈비를 계산

공감과 비공감 카테고리에서 상대적으로 중요한 단어를 추출해 막대 그래프 생성

주요 단어를 언급한 댓글 원문을 탐색

In [22]:

word_noun %>% print

# A tibble: 65,805 x 10
   reg_time            reply      press title url   sympathyCount antipathyCount
   <dttm>              <chr>      <chr> <chr> <chr>         <dbl>          <dbl>
 1 2019-12-05 20:29:54 분단 백년~ 연합~ '타~  http~             0              0
 2 2019-12-05 20:29:54 분단 백년~ 연합~ '타~  http~             0              0
 3 2019-12-05 20:29:54 분단 백년~ 연합~ '타~  http~             0              0
 4 2019-12-05 20:29:54 분단 백년~ 연합~ '타~  http~             0              0
 5 2019-12-05 20:29:54 분단 백년~ 연합~ '타~  http~             0              0
 6 2019-12-05 20:29:54 분단 백년~ 연합~ '타~  http~             0              0
 7 2019-12-05 20:29:54 분단 백년~ 연합~ '타~  http~             0              0
 8 2019-12-05 20:29:54 분단 백년~ 연합~ '타~  http~             0              0
 9 2019-12-05 20:29:54 분단 백년~ 연합~ '타~  http~             0              0
10 2019-12-05 20:29:54 분단 백년~ 연합~ '타~  http~             0              0
# ... with 65,795 more rows, and 3 more variables: id <int>, reply_raw <chr>,
#   word <chr>
…
In [30]:

# 로그 오즈비 구하기
frequency_wide <- frequency_wide %>%
  mutate(log_odds_ratio = log(((like    + 1) / (sum(like    + 1))) /
                              ((dislike + 1) / (sum(dislike + 1)))))

frequency_wide %>%
  arrange(-log_odds_ratio) %>% print

# A tibble: 11,115 x 5
   word     dislike  like neutral log_odds_ratio
   <chr>      <int> <int>   <int>          <dbl>
 1 조합           0    25      12           2.79
 2 승용차         0    11      11           2.01
 3 타고           0    11       7           2.01
 4 무능           0    10       5           1.93
 5 마차           0     9      13           1.83
 6 베트남         0     9       7           1.83
 7 수수료         0     9       2           1.83
 8 스타트업       0     9      18           1.83
 9 전기           0     9       2           1.83
10 개혁           1    18      20           1.78
# ... with 11,105 more rows
…
  count(category, word, sort = T) %>%       # 카테고리별 단어 빈도
  filter(str_count(word) >= 2)              # 2글자 이상 추출

In [90]:

tfidf_category <- frequency_category %>%
  bind_tf_idf(term = word,
              document = category,
              n = n) %>%
  arrange(-tf_idf)

tfidf_category %>% print

# A tibble: 4,145 x 6
   category word         n      tf   idf  tf_idf
   <chr>    <chr>    <int>   <dbl> <dbl>   <dbl>
 1 국회의원 박홍근      12 0.00411 1.10  0.00451
 2 국회의원 발의        10 0.00342 1.10  0.00376
 3 정부     현정부       5 0.00204 1.10  0.00225
 4 택시업계 대기업       4 0.00191 1.10  0.00210
 5 택시업계 밥그릇      10 0.00479 0.405 0.00194
 6 국회의원 기억         5 0.00171 1.10  0.00188
 7 국회의원 만장일치     5 0.00171 1.10  0.00188
 8 국회의원 명단         5 0.00171 1.10  0.00188
 9 국회의원 투표         5 0.00171 1.10  0.00188
10 정부     가족         4 0.00164 1.10  0.00180
# ... with 4,135 more rows
…
카테고리별 댓글 내용 탐색

In [95]:

# 중복 댓글 제거
reply_category <- bind_category %>%
  group_by(category) %>%
  distinct(id, .keep_all = T)

In [97]:

reply_category %>% print

# A tibble: 695 x 13
# Groups:   category [3]
   reg_time            reply     press title url    like dislike    id reply_raw
   <dttm>              <chr>     <chr> <chr> <chr> <dbl>   <dbl> <int> <chr>    
 1 2019-12-05 20:29:54 분단 백~  연합~ '타~  http~     0       0     1 祝[RHG::~
 2 2019-12-05 19:02:57 택시업계~ 연합~ '타~  http~     1       1   104 택시업계~
 3 2019-12-05 18:49:27 타다가 ~  연합~ '타~  http~     2       1   134 타다가 ~ 
 4 2019-12-06 02:16:27 택시업계~ 연합~ '타~  http~     0       0   156 택시업계~
 5 2019-12-06 12:49:26 택시업계~ 연합~ '타~  http~     0       0   219 택시업계~
 6 2019-12-06 12:39:03 우리나라~ 연합~ '타~  http~     0       0   227 우리나라~
 7 2019-12-06 12:37:30 결국 선~  연합~ '타~  http~     0       0   228 결국 선~ 
 8 2019-12-06 11:39:06 우리나라~ 연합~ '타~  http~     1       0   307 우리나라~
 9 2019-12-06 11:26:16 중국에 ~  연합~ '타~  http~     0       0   331 중국에 ~ 
10 2019-12-06 11:05:57 택시업계~ 서울~ ‘타~  http~     0       0   383 택시업계~
# ... with 685 more rows, and 4 more variables: word <chr>, diff <dbl>,
#   sympathy <chr>, category <chr>
…
# 품사 태그 정리
separate_pos_tada <- pos_tada %>%
  separate_rows(word_pos, sep = "[+]") %>%                   # 품사 태그 분리
  filter(str_detect(word_pos, "/n|/pv|/pa")) %>%             # 품사 추출
  mutate(word = ifelse(str_detect(word_pos, "/pv|/pa"),      # "/pv", "/pa" 추출
                       str_replace(word_pos, "/.*$", "다"),  # "~다"로 바꾸기
                       str_remove(word_pos, "/.*$"))) %>%    # 태그 제거
  filter(str_count(word) >= 2) %>%                           # 2글자 이상 추출
  arrange(id)

separate_pos_tada %>%
  select(word) %>% print

# A tibble: 55,567 x 1
   word    
   <chr>   
 1 분단    
 2 결론    
 3 진정성  
 4 결과적  
 5 타다    
 6 택시    
 7 맞다    
 8 택시업계
 9 헌법위반
10 드론택배
# ... with 55,557 more rows

In [107]:

library(widyr)
word_cors <- separate_pos_tada %>%
  add_count(word) %>%
  filter(n >= 20) %>%
  pairwise_cor(item = word, feature = id, sort = T)

word_cors %>% print

# A tibble: 128,522 x 3
   item1  item2  correlation
   <chr>  <chr>        <dbl>
 1 역행하 시대         0.408
 2 시대   역행하       0.408
 3 냄새   담배         0.333
 4 담배   냄새         0.333
 5 챙기다 밥그릇       0.293
 6 밥그릇 챙기다       0.293
 7 그랩   우버         0.286
 8 우버   그랩         0.286
 9 흐르다 시대         0.269
10 시대   흐르다       0.269
# ... with 128,512 more rows
관심 단어와 관련성이 큰 단어로 막대 그래프 만들기

In [108]:

target <- c("타다", "정부", "택시")

# 상위 10개 추출
top_cors <- word_cors %>%
  filter(item1 %in% target) %>%
  group_by(item1) %>%
  slice_max(correlation, n = 10)

top_cors %>% print

# A tibble: 30 x 3
# Groups:   item1 [3]
   item1 item2    correlation
   <chr> <chr>          <dbl>
 1 정부  세금          0.0862
 2 정부  기업          0.0813
 3 정부  개인택시      0.0687
 4 정부  상황          0.0670
 5 정부  막다          0.0592
 6 정부  문재인        0.0586
 7 정부  자유          0.0565
 8 정부  경제          0.0564
 9 정부  규제          0.0561
10 정부  시장          0.0533
# ... with 20 more rows
…
In [119]:

# 바이그램으로 토큰화
bigram_comment <- line_comment %>%
  unnest_tokens(input = sentence,
                output = bigram,
                token = "ngrams",
                n = 2)

bigram_comment %>% print

# A tibble: 50,608 x 2
      id bigram           
   <int> <chr>            
 1     1 분단 결론        
 2     1 결론 진정성      
 3     1 진정성 결과적    
 4     1 결과적 타다      
 5     1 타다 택시        
 6     1 택시 맞다        
 7     1 맞다 택시업계    
 8     1 택시업계 헌법위반
 9     1 헌법위반 드론택배
10     1 드론택배 불법    
# ... with 50,598 more rows

In [120]:

# 바이그램 분리하기
bigram_seprated <- bigram_comment %>%
  separate(bigram, c("word1", "word2"), sep = " ")

# 단어쌍 빈도 구하기
pair_bigram <- bigram_seprated %>%
  count(word1, word2, sort = T) %>%
  na.omit()

pair_bigram %>% print

# A tibble: 43,244 x 3
   word1 word2      n
   <chr> <chr>  <int>
 1 택시  타다     159
 2 타다  타다      79
 3 타다  택시      72
 4 타다  혁신      49
 5 타다  좋다      44
 6 타다  불법      42
 7 택시  서비스    37
 8 타다  금지법    27
 9 타다  다니다    27
10 택시  기사      27
# ... with 43,234 more rows
…
댓글 내용 탐색

In [123]:

line_tada <- line_comment %>%
  left_join(tada, by = "id")

line_tada %>%
  select(sentence) %>% print

# A tibble: 5,108 x 1
   sentence                                                                     
   <chr>                                                                        
 1 분단 결론 진정성 결과적 타다 택시 맞다 택시업계 헌법위반 드론택배 불법 현재~ 
 2 러다이트 운동 영국 중부 북부 직물공업지대 일어나다 기계 파괴운동 택시기사들 ~
 3 저런것들도 국회의원                                                          
 4 우버 그랩 같다 서비스 자연 서비스 택시 서비스 자율경쟁 통하다 상생 제도 개선~
 5 택시승차거부하면 벌금 만원 때리다 근무복                                     
 6 자율주행택시 나오다 택시기사들 뒤지다 왜이렇게 밥그릇 지키다                 
 7 옛말 고인 물다 썩다 택시기사들 꼬라지 고이다 상태 승차거부 시작해서 정치 이~ 
 8 택시 자격증 따다 운행하면 모르다 자격증 운행                                 
 9 편법 돈벌라는 양아치들 내주                                                  
10 똥남아보다 우리나라 네트웍 강국 맞다 택시 타다 태국 민주당 감성팔이 우치다보~
# ... with 5,098 more rows
…
# 중복, 고빈도 단어 제거
unique_noun_tada <- noun_tada %>%
  group_by(id) %>%                                     # 중복 단어 제거
  distinct(word, .keep_all = T) %>%
  ungroup() %>%
  add_count(word) %>%                                  # 고빈도 단어 제거
  filter(n <= 200) %>%
  select(id, word)

unique_noun_tada %>% print

# A tibble: 36,972 x 2
      id word    
   <int> <chr>   
 1     1 분단    
 2     1 결론    
 3     1 진정    
 4     1 결과    
 5     1 업계    
 6     1 헌법위반
 7     1 드론    
 8     1 택배    
 9     1 현재    
10     1 국기    
# ... with 36,962 more rows
…
In [137]:

# 불용어 목록 생성
stopword_lda <- c("하게", "하다", "하려", "해라", "그것", "하면", "하네",
                  "하기", "하나", "해서", "하면", "하지", "한거", "니들")

# 불용어 제외 후 상위 10개 단어 추출
top_term_topic <- term_topic %>%
  filter(!term %in% stopword_lda) %>%
  group_by(topic) %>%
  slice_max(beta, n = 10)

top_term_topic %>% print

# A tibble: 93 x 3
# Groups:   topic [9]
   topic term        beta
   <int> <chr>      <dbl>
 1     1 금지     0.0176 
 2     1 기존     0.0166 
 3     1 때문     0.0139 
 4     1 이상     0.0103 
 5     1 반대     0.00948
 6     1 공유     0.00948
 7     1 개인     0.00929
 8     1 신사업   0.00600
 9     1 국회의원 0.00581
10     1 정책     0.00581
# ... with 83 more rows
…
토픽별로 댓글 분류¶

In [140]:

# 문서별 토픽 확률 gamma 추출하기
doc_topic <- tidy(lda_model, matrix = "gamma")

# 문서별로 확률이 가장 높은 토픽 추출
doc_class <- doc_topic %>%
  group_by(document) %>%
  slice_max(gamma, n = 1)

doc_class %>% print

# A tibble: 8,134 x 3
# Groups:   document [4,745]
   document topic gamma
   <chr>    <int> <dbl>
 1 1            3 0.529
 2 10           1 0.165
 3 100          2 0.126
 4 100          6 0.126
 5 1000         6 0.140
 6 1001         4 0.129
 7 1002         3 0.140
 8 1003         6 0.124
 9 1003         8 0.124
10 1003         9 0.124
# ... with 8,124 more rows
…
In [153]:

# 토픽 이름 결합하기
top_term_topic_name <- top_term_topic %>%
  left_join(name_topic, name_topic, by = "topic")

top_term_topic_name %>% print

# A tibble: 93 x 4
# Groups:   topic [9]
   topic term        beta name                   
   <int> <chr>      <dbl> <chr>                  
 1     1 금지     0.0176  1. 신사업 가로막는 국회
 2     1 기존     0.0166  1. 신사업 가로막는 국회
 3     1 때문     0.0139  1. 신사업 가로막는 국회
 4     1 이상     0.0103  1. 신사업 가로막는 국회
 5     1 반대     0.00948 1. 신사업 가로막는 국회
 6     1 공유     0.00948 1. 신사업 가로막는 국회
 7     1 개인     0.00929 1. 신사업 가로막는 국회
 8     1 신사업   0.00600 1. 신사업 가로막는 국회
 9     1 국회의원 0.00581 1. 신사업 가로막는 국회
10     1 정책     0.00581 1. 신사업 가로막는 국회
# ... with 83 more rows
…
