08 대선 주자 SNS 여론 분석
…
In [98]:

frequency14 <- word_tweet_raw %>%
  mutate(category = ifelse(date == "2020-08-14", "target", "etc")) %>%
  filter(str_count(word) >= 2) %>%
  count(category, word, sort = T)

frequency14 %>% print

# A tibble: 62,567 x 3
   category word         n
   <chr>    <chr>    <int>
 1 etc      이낙연    2332
 2 etc      이재명    2282
 3 target   이재명     854
 4 target   이낙연     736
 5 etc      이재명이   679
 6 etc      이재명은   534
 7 etc      코로나     453
 8 etc      정세균     440
 9 etc      나라가     428
10 etc      민주당     419
# ... with 62,557 more rows
…
  # 불용어 제거
  filter(!(candidate == "이낙연" & str_detect(word, "이낙연")) &
         !(candidate == "이재명" & str_detect(word, "이재명"))) %>%

  filter(str_count(word) >= 2) %>%
  count(candidate, sentiment, word) %>%

  group_by(candidate, sentiment) %>%
  slice_max(n, n = 10, with_ties = F)

top10_word %>% print

# A tibble: 60 x 4
# Groups:   candidate, sentiment [6]
   candidate sentiment word         n
   <chr>     <chr>     <chr>    <int>
 1 이낙연    긍정      좋은        34
 2 이낙연    긍정      바람직한    12
 3 이낙연    긍정      좋다        12
 4 이낙연    긍정      소중한      11
 5 이낙연    긍정      최고        11
 6 이낙연    긍정      고귀한       9
 7 이낙연    긍정      많다         9
 8 이낙연    긍정      훌륭한       9
 9 이낙연    긍정      감사         8
10 이낙연    긍정      좋아하는     8
# ... with 50 more rows
…
05 감정 추이 살펴보기¶

날짜, 후보, 감정 범주별로 트윗의 빈도를 계산

선 그래프와 영역 차트를 만들어 추이를 탐색

In [121]:

# 날짜, 후보, 감정별 빈도
sentiment_candidate <- tweet %>%
  count(date, candidate, sentiment)

sentiment_candidate %>% print

# A tibble: 54 x 4
   date       candidate sentiment     n
   <date>     <chr>     <chr>     <int>
 1 2020-08-13 이낙연    긍정         62
 2 2020-08-13 이낙연    부정         44
 3 2020-08-13 이낙연    중립        187
 4 2020-08-13 이재명    긍정        126
 5 2020-08-13 이재명    부정        153
 6 2020-08-13 이재명    중립        412
 7 2020-08-14 이낙연    긍정        145
 8 2020-08-14 이낙연    부정        161
 9 2020-08-14 이낙연    중립        487
10 2020-08-14 이재명    긍정        207
# ... with 44 more rows
…
In [127]:

# 감정 범주 및 단어별 빈도 구하기
frequency_sentiment <- word_sentiment_tweet %>%  

  group_by(status_id) %>%                        # 트윗별 분리
  distinct(word, .keep_all = T) %>%              # 중복 단어 제거
  ungroup() %>%

  count(candidate, sentiment, word, sort = T)

frequency_sentiment %>% print

# A tibble: 76,330 x 4
   candidate sentiment word         n
   <chr>     <chr>     <chr>    <int>
 1 이낙연    중립      이낙연    1486
 2 이재명    중립      이재명    1457
 3 이낙연    부정      이낙연     532
 4 이재명    부정      이재명     495
 5 이재명    중립      이재명이   482
 6 이낙연    긍정      이낙연     428
 7 이재명    중립      이재명은   351
 8 이재명    긍정      이재명     319
 9 이낙연    중립      정세균     252
10 이낙연    중립      나라가     244
# ... with 76,320 more rows
…
