03 데이터 전처리
…
In [31]:

AmesHousing::ames_raw %>% 
  filter(is.na(`Garage Type`)) %>% 
  select(`Garage Type`, `Garage Cars`, `Garage Area`) %>% print

# A tibble: 157 x 3
   `Garage Type` `Garage Cars` `Garage Area`
   <chr>                 <int>         <int>
 1 NA                        0             0
 2 NA                        0             0
 3 NA                        0             0
 4 NA                        0             0
 5 NA                        0             0
 6 NA                        0             0
 7 NA                        0             0
 8 NA                        0             0
 9 NA                        0             0
10 NA                        0             0
# ... with 147 more rows
…
Operations:

Log transformation on all_outcomes()
Centering for all_numeric(), -all_outcomes()
Scaling for all_numeric(), -all_outcomes()

범주형 변수 엔지니어링¶

덩어리 lumping¶

In [71]:

count(ames_train, Neighborhood) %>% arrange(n) %>% print

# A tibble: 28 x 2
   Neighborhood            n
   <fct>               <int>
 1 Green_Hills             1
 2 Landmark                1
 3 Greens                  4
 4 Blueste                 8
 5 Veenker                16
 6 Northpark_Villa        17
 7 Bloomington_Heights    18
 8 Meadow_Village         22
 9 Briardale              23
10 Clear_Creek            26
# ... with 18 more rows
…
In [83]:

apply_2_training <- prep(lumping, training = ames_train) %>%
  bake(ames_train)

In [95]:

count(apply_2_training, Neighborhood) %>% arrange(n) %>% print

# A tibble: 22 x 2
   Neighborhood                                n
   <fct>                                   <int>
 1 Meadow_Village                             22
 2 Briardale                                  23
 3 Clear_Creek                                26
 4 South_and_West_of_Iowa_State_University    33
 5 Stone_Brook                                37
 6 Northridge                                 49
 7 Timberland                                 50
 8 other                                      65
 9 Iowa_DOT_and_Rail_Road                     73
10 Brookside                                  74
# ... with 12 more rows
…
