11. 리샘플링을 통한 모델 비교
…
마지막 항은 두 항목 간의 공분산 => 크기가 큰 양의 공분산이 있는 경우 이 차이에 대한 통계적 검정은 두 모형의 차이를 비교하는데 있어 검정력이 부족할 수 있음

다시 말해, 리샘플링 vs 리샘플링 효과를 무시하면 모델 간 차이를 찾는 쪽으로 모델 비교가 편향될 수 있음

예를 들어, R2값이 ±2% 이내이면 두 모델이 실질적으로 다르지 않다고 생각할 수 있음 => 이 경우 2% 미만의 차이는 통계적으로 유의하더라도 중요하지 않은 것으로 간주

 ¶
 ¶
11.3 가설 검정¶

In [19]:

rsq_indiv_estimates %>% print

# A tibble: 40 x 8
   wflow_id      .config             preproc model id    .metric .esti~1 .esti~2
   <chr>         <chr>               <chr>   <chr> <chr> <chr>   <chr>     <dbl>
 1 random_forest Preprocessor1_Mode~ formula rand~ Fold~ rsq     standa~   0.872
 2 random_forest Preprocessor1_Mode~ formula rand~ Fold~ rsq     standa~   0.843
 3 random_forest Preprocessor1_Mode~ formula rand~ Fold~ rsq     standa~   0.838
 4 random_forest Preprocessor1_Mode~ formula rand~ Fold~ rsq     standa~   0.845
 5 random_forest Preprocessor1_Mode~ formula rand~ Fold~ rsq     standa~   0.864
 6 random_forest Preprocessor1_Mode~ formula rand~ Fold~ rsq     standa~   0.787
 7 random_forest Preprocessor1_Mode~ formula rand~ Fold~ rsq     standa~   0.864
 8 random_forest Preprocessor1_Mode~ formula rand~ Fold~ rsq     standa~   0.822
 9 random_forest Preprocessor1_Mode~ formula rand~ Fold~ rsq     standa~   0.818
10 random_forest Preprocessor1_Mode~ formula rand~ Fold~ rsq     standa~   0.775
# ... with 30 more rows, and abbreviated variable names 1: .estimator,
#   2: .estimate

In [20]:

rsq_indiv_estimates %>% 
    select(id, rsq = .estimate, model = wflow_id) %>% 
    arrange(id, model) %>% 
    mutate(X1 = ifelse(model == "interact_lm", 1, 0),
           X2 = ifelse(model == "random_forest", 1, 0),
           X3 = ifelse(model == "splines_lm", 1, 0)) %>% 
    select(`Y = rsq` = rsq, model, X1, X2, X3, id) %>% print

# A tibble: 40 x 6
   `Y = rsq` model            X1    X2    X3 id    
       <dbl> <chr>         <dbl> <dbl> <dbl> <chr> 
 1     0.844 basic_lm          0     0     0 Fold01
 2     0.844 interact_lm       1     0     0 Fold01
 3     0.872 random_forest     0     1     0 Fold01
 4     0.838 splines_lm        0     0     1 Fold01
 5     0.790 basic_lm          0     0     0 Fold02
 6     0.797 interact_lm       1     0     0 Fold02
 7     0.843 random_forest     0     1     0 Fold02
 8     0.813 splines_lm        0     0     1 Fold02
 9     0.814 basic_lm          0     0     0 Fold03
10     0.818 interact_lm       1     0     0 Fold03
# ... with 30 more rows
…
